(footprint "AYZ0102AGRLC" (version 20211014) (generator pcbnew) (layer "F.Cu")
  (tedit 6173622B)
  (attr smd)
  (fp_text reference "REF**" (at 0.01 -8.11 unlocked) (layer "F.SilkS")
    (effects (font (size 1 1) (thickness 0.15)))
    (tstamp 2ac4294c-44ad-4a8a-9ed0-8fb6b336cb7f)
  )
  (fp_text value "AYZ0102AGRLC" (at 0.01 -6.61 unlocked) (layer "F.Fab")
    (effects (font (size 1 1) (thickness 0.15)))
    (tstamp 545bfaed-9a8c-462a-a4ea-3818400f975f)
  )
  (fp_text user "${REFERENCE}" (at 0.01 -5.11 unlocked) (layer "F.Fab")
    (effects (font (size 1 1) (thickness 0.15)))
    (tstamp 6e1ae4ff-0c0f-4b9f-a8e7-dcaa4fa51efd)
  )
  (fp_line (start -3.6 -3.4) (end -3.6 1.59) (layer "F.SilkS") (width 0.12) (tstamp 095b11e0-4792-4f1c-9540-069d9234bd7b))
  (fp_line (start 3.6 -3.4) (end 3.6 1.59) (layer "F.SilkS") (width 0.12) (tstamp 1056a9e5-6ce0-4c6c-a37e-3922d5f38b85))
  (fp_line (start -3.6 -3.4) (end 3.6 -3.4) (layer "F.SilkS") (width 0.12) (tstamp a467e458-5e71-462c-9dfd-5c4830b54c3e))
  (fp_line (start -3.6 1.59) (end 3.6 1.59) (layer "F.SilkS") (width 0.12) (tstamp cb143d58-8ed9-436e-817c-bda594d7874b))
  (pad "" np_thru_hole circle (at 1.5 0) (size 1 1) (drill 1) (layers F&B.Cu *.Mask) (tstamp 6701bf33-294a-4afb-b44c-303641672f55))
  (pad "" np_thru_hole circle (at -1.5 0) (size 1 1) (drill 1) (layers F&B.Cu *.Mask) (tstamp d7aa3f66-0bb6-40d3-a1a8-e770e5197f58))
  (pad "1" smd rect (at -2.5 -2.3) (size 1 1.2) (layers "F.Cu" "F.Paste" "F.Mask") (tstamp 33a8e71e-c950-4951-bc08-87a92c7542c4))
  (pad "2" smd rect (at -0.01 -2.3) (size 1 1.2) (layers "F.Cu" "F.Paste" "F.Mask") (tstamp e60cc0bb-87ac-4afc-b9e5-730fac5b30c6))
  (pad "3" smd rect (at 2.49 -2.3) (size 1 1.2) (layers "F.Cu" "F.Paste" "F.Mask") (tstamp fcd08b36-71b2-4332-a122-a3809912c835))
  (model "/home/solomon/code/earring-v2/earring-v2-pcb/3dmodels/AYZ0102AGRLC.stp"
    (offset (xyz 0 0 0))
    (scale (xyz 1 1 1))
    (rotate (xyz -90 0 0))
  )
)
