(footprint "LED_LiteOn_LTST-C19HE1WT_3DMODEL" (version 20210228) (generator pcbnew) (layer "F.Cu")
  (tedit 60822AF2)
  (descr "LiteOn RGB LED; https://optoelectronics.liteon.com/upload/download/DS22-2008-0044/LTST-C19HE1WT.pdf")
  (tags "LED RGB Chip SMD")
  (attr smd)
  (fp_text reference "REF**" (at 0 -1.8) (layer "F.SilkS")
    (effects (font (size 1 1) (thickness 0.15)))
    (tstamp 80baf485-31af-4630-b8bc-af669306381d)
  )
  (fp_text value "LED_LiteOn_LTST-C19HE1WT_3DMODEL" (at 0 1.6) (layer "F.Fab")
    (effects (font (size 1 1) (thickness 0.15)))
    (tstamp 21b4d3bf-3289-4956-b212-d40679841aa2)
  )
  (fp_text user "${REFERENCE}" (at 0 0) (layer "F.Fab")
    (effects (font (size 0.3 0.3) (thickness 0.05)))
    (tstamp 7adaa537-de97-410b-a073-03182dc92a0b)
  )
  (fp_line (start -0.95 -0.35) (end -0.95 0.8) (layer "F.SilkS") (width 0.12) (tstamp 364f8608-0ee8-4e64-81a7-e1f780182ffb))
  (fp_line (start 0.95 -0.8) (end 0.95 0.8) (layer "F.SilkS") (width 0.12) (tstamp ba7b50aa-8946-4a63-9298-e218bc3b14b2))
  (fp_line (start 1.05 1.4) (end -1.05 1.4) (layer "F.CrtYd") (width 0.05) (tstamp 436c4ffc-8ebf-448c-978e-6f44a4c70a6a))
  (fp_line (start -1.05 -1.4) (end 1.05 -1.4) (layer "F.CrtYd") (width 0.05) (tstamp 480c345d-e5e9-404d-af72-eb0e78a7cde7))
  (fp_line (start -1.05 1.4) (end -1.05 -1.4) (layer "F.CrtYd") (width 0.05) (tstamp 5972d19a-d4b1-4cf4-a1e7-f5eb5c78678d))
  (fp_line (start 1.05 -1.4) (end 1.05 1.4) (layer "F.CrtYd") (width 0.05) (tstamp 95448edd-edb5-429c-91ea-af46103edddc))
  (fp_line (start -0.8 0.8) (end 0.8 0.8) (layer "F.Fab") (width 0.1) (tstamp 2c274bd4-e1d5-4098-9b2b-6070b49b0c5c))
  (fp_line (start -0.8 -0.4) (end -0.8 0.8) (layer "F.Fab") (width 0.1) (tstamp 36e09dc6-9f3a-4f73-829d-844d0e1065d0))
  (fp_line (start 0.8 -0.8) (end -0.4 -0.8) (layer "F.Fab") (width 0.1) (tstamp 4f0be016-b8c8-4332-9d36-85b46300e5b6))
  (fp_line (start -0.4 -0.8) (end -0.8 -0.4) (layer "F.Fab") (width 0.1) (tstamp 9ad5d42a-0703-4b4f-b6fe-d8e377ada2c5))
  (fp_line (start 0.8 0.8) (end 0.8 -0.8) (layer "F.Fab") (width 0.1) (tstamp fb97fc66-a51c-4179-8b3e-56bf9a194344))
  (pad "1" smd rect (at -0.425 -0.725) (locked) (size 0.65 0.85) (layers "F.Cu" "F.Paste" "F.Mask") (tstamp cab4afcc-bfb5-4112-8812-448f8c7466da))
  (pad "2" smd rect (at 0.425 -0.725) (locked) (size 0.65 0.85) (layers "F.Cu" "F.Paste" "F.Mask") (tstamp aa3a3c6d-fb4f-4538-90fe-09049de631f6))
  (pad "3" smd rect (at 0.425 0.725) (locked) (size 0.65 0.85) (layers "F.Cu" "F.Paste" "F.Mask") (tstamp fe0935f9-2edb-4119-8034-1f2da5165aa0))
  (pad "4" smd rect (at -0.425 0.725) (locked) (size 0.65 0.85) (layers "F.Cu" "F.Paste" "F.Mask") (tstamp 0d8d1f34-c4f4-4b8e-bb87-e73da898fa6b))
  (model "${KICAD6_3DMODEL_DIR}/LED_SMD.3dshapes/LED_LiteOn_LTST-C19HE1WT.wrl"
    (offset (xyz 0 0 0))
    (scale (xyz 1 1 1))
    (rotate (xyz 0 0 0))
  )
  (model "${KIPRJMOD}/LTST-C19HE1WT--3DModel-STEP-56544.STEP"
    (offset (xyz 0 0 0))
    (scale (xyz 1 1 1))
    (rotate (xyz -90 0 -90))
  )
)
