(footprint "SOT-583" (version 20211014) (generator pcbnew) (layer "F.Cu")
  (tedit 61735ACE)
  (descr "SOT563")
  (tags "SOT-563")
  (attr smd)
  (fp_text reference "REF**" (at 0 -1.7) (layer "F.SilkS")
    (effects (font (size 1 1) (thickness 0.15)))
    (tstamp c8902c2a-36a1-47b6-b747-771e2a1c8264)
  )
  (fp_text value "SOT-583" (at 0 1.75) (layer "F.Fab")
    (effects (font (size 1 1) (thickness 0.15)))
    (tstamp 907aafe7-9fc6-488f-b90b-794d924008b7)
  )
  (fp_text user "${REFERENCE}" (at 0 0 90) (layer "F.Fab")
    (effects (font (size 0.4 0.4) (thickness 0.0625)))
    (tstamp 22a7367d-8689-4fbe-a43d-4e2dbf272a17)
  )
  (fp_line (start 0.65 1.4) (end -0.65 1.4) (layer "F.SilkS") (width 0.12) (tstamp 53244223-92c1-4524-ab6d-03c0aedfbce2))
  (fp_line (start -0.9 -0.9) (end 0.65 -0.9) (layer "F.SilkS") (width 0.12) (tstamp b4fb4d90-87d8-4612-b8df-9700d1cd121b))
  (fp_line (start -1.35 -1.1) (end -1.35 1.6) (layer "F.CrtYd") (width 0.05) (tstamp 50809039-b61f-44a0-9a0a-f44497593944))
  (fp_line (start 1.35 1.6) (end 1.35 -1.1) (layer "F.CrtYd") (width 0.05) (tstamp c240b176-2a22-49b8-9226-ace535b26b06))
  (fp_line (start -1.35 -1.1) (end 1.35 -1.1) (layer "F.CrtYd") (width 0.05) (tstamp d0125263-f15d-4c07-bf1b-aad73b358fd6))
  (fp_line (start 1.35 1.6) (end -1.35 1.6) (layer "F.CrtYd") (width 0.05) (tstamp f8d6c237-8c38-41b3-ad14-756e70720f31))
  (fp_line (start -0.65 -0.5) (end -0.3 -0.85) (layer "F.Fab") (width 0.1) (tstamp 4620ca12-3a72-4d55-9d61-13190d50d703))
  (fp_line (start -0.65 -0.5) (end -0.65 1.35) (layer "F.Fab") (width 0.1) (tstamp 6a9d336a-a14a-4273-8e55-3edf897044f1))
  (fp_line (start 0.65 -0.85) (end -0.3 -0.85) (layer "F.Fab") (width 0.1) (tstamp 7d7fac46-54a4-4f92-9f6e-5ff847fd68da))
  (fp_line (start 0.65 1.35) (end 0.65 -0.85) (layer "F.Fab") (width 0.1) (tstamp f0e723c7-3d35-48f9-800d-bc46dcdd6897))
  (fp_line (start -0.65 1.35) (end 0.65 1.35) (layer "F.Fab") (width 0.1) (tstamp f7647ed6-781d-4dd6-9077-f3b1d278f95f))
  (pad "1" smd rect locked (at -0.75 -0.5) (size 0.67 0.3) (layers "F.Cu" "F.Paste" "F.Mask") (tstamp b7c4a4b7-6ddd-4f66-b6ed-3ad962f5d356))
  (pad "2" smd rect locked (at -0.75 0) (size 0.67 0.3) (layers "F.Cu" "F.Paste" "F.Mask") (tstamp 89a15dd1-d78b-41d0-ae98-83348abc3b73))
  (pad "3" smd rect locked (at -0.75 0.5) (size 0.67 0.3) (layers "F.Cu" "F.Paste" "F.Mask") (tstamp b73cda42-dfbe-4a1c-a079-4dc34bae4a82))
  (pad "4" smd rect locked (at -0.75 1) (size 0.67 0.3) (layers "F.Cu" "F.Paste" "F.Mask") (tstamp a4120c68-c116-431d-95ee-506316312460))
  (pad "5" smd rect locked (at 0.75 1) (size 0.67 0.3) (layers "F.Cu" "F.Paste" "F.Mask") (tstamp 003bcf17-0a6b-43a0-835d-9c756746981e))
  (pad "6" smd rect locked (at 0.75 0.5) (size 0.67 0.3) (layers "F.Cu" "F.Paste" "F.Mask") (tstamp 8831b6aa-0a85-4639-945c-1302c2abdfb6))
  (pad "7" smd rect locked (at 0.75 0) (size 0.67 0.3) (layers "F.Cu" "F.Paste" "F.Mask") (tstamp 162d3fe5-2326-477c-a3f4-912eea49abfa))
  (pad "8" smd rect locked (at 0.75 -0.5) (size 0.67 0.3) (layers "F.Cu" "F.Paste" "F.Mask") (tstamp d48e2088-c5f0-4923-b5bc-18b15be63c69))
  (model "/home/solomon/code/earring-v2/earring-v2-pcb/3dmodels/MP2333HGTL.stp"
    (offset (xyz 0 -0.25 0))
    (scale (xyz 1 1 1))
    (rotate (xyz 0 0 0))
  )
)
