(kicad_sch (version 20210621) (generator eeschema)

  (uuid 4eda982b-6d00-42ea-9098-d58fb4290eb4)

  (paper "A4")

  (lib_symbols
    (symbol "Device:LED_RGBA" (pin_names (offset 0) hide) (in_bom yes) (on_board yes)
      (property "Reference" "D" (id 0) (at 0 9.398 0)
        (effects (font (size 1.27 1.27)))
      )
      (property "Value" "LED_RGBA" (id 1) (at 0 -8.89 0)
        (effects (font (size 1.27 1.27)))
      )
      (property "Footprint" "" (id 2) (at 0 -1.27 0)
        (effects (font (size 1.27 1.27)) hide)
      )
      (property "Datasheet" "~" (id 3) (at 0 -1.27 0)
        (effects (font (size 1.27 1.27)) hide)
      )
      (property "ki_keywords" "LED RGB diode" (id 4) (at 0 0 0)
        (effects (font (size 1.27 1.27)) hide)
      )
      (property "ki_description" "RGB LED, red/green/blue/anode" (id 5) (at 0 0 0)
        (effects (font (size 1.27 1.27)) hide)
      )
      (property "ki_fp_filters" "LED* LED_SMD:* LED_THT:*" (id 6) (at 0 0 0)
        (effects (font (size 1.27 1.27)) hide)
      )
      (symbol "LED_RGBA_0_0"
        (text "B" (at -1.905 -6.35 0)
          (effects (font (size 1.27 1.27)))
        )
        (text "G" (at -1.905 -1.27 0)
          (effects (font (size 1.27 1.27)))
        )
        (text "R" (at -1.905 3.81 0)
          (effects (font (size 1.27 1.27)))
        )
      )
      (symbol "LED_RGBA_0_1"
        (polyline
          (pts
            (xy -1.27 -5.08)
            (xy -2.54 -5.08)
          )
          (stroke (width 0) (type default) (color 0 0 0 0))
          (fill (type none))
        )
        (polyline
          (pts
            (xy -1.27 -5.08)
            (xy 1.27 -5.08)
          )
          (stroke (width 0) (type default) (color 0 0 0 0))
          (fill (type none))
        )
        (polyline
          (pts
            (xy -1.27 -3.81)
            (xy -1.27 -6.35)
          )
          (stroke (width 0.254) (type default) (color 0 0 0 0))
          (fill (type none))
        )
        (polyline
          (pts
            (xy -1.27 0)
            (xy -2.54 0)
          )
          (stroke (width 0) (type default) (color 0 0 0 0))
          (fill (type none))
        )
        (polyline
          (pts
            (xy -1.27 1.27)
            (xy -1.27 -1.27)
          )
          (stroke (width 0.254) (type default) (color 0 0 0 0))
          (fill (type none))
        )
        (polyline
          (pts
            (xy -1.27 5.08)
            (xy -2.54 5.08)
          )
          (stroke (width 0) (type default) (color 0 0 0 0))
          (fill (type none))
        )
        (polyline
          (pts
            (xy -1.27 5.08)
            (xy 1.27 5.08)
          )
          (stroke (width 0) (type default) (color 0 0 0 0))
          (fill (type none))
        )
        (polyline
          (pts
            (xy -1.27 6.35)
            (xy -1.27 3.81)
          )
          (stroke (width 0.254) (type default) (color 0 0 0 0))
          (fill (type none))
        )
        (polyline
          (pts
            (xy 1.27 0)
            (xy -1.27 0)
          )
          (stroke (width 0) (type default) (color 0 0 0 0))
          (fill (type none))
        )
        (polyline
          (pts
            (xy 1.27 0)
            (xy 2.54 0)
          )
          (stroke (width 0) (type default) (color 0 0 0 0))
          (fill (type none))
        )
        (polyline
          (pts
            (xy -1.27 1.27)
            (xy -1.27 -1.27)
            (xy -1.27 -1.27)
          )
          (stroke (width 0) (type default) (color 0 0 0 0))
          (fill (type none))
        )
        (polyline
          (pts
            (xy -1.27 6.35)
            (xy -1.27 3.81)
            (xy -1.27 3.81)
          )
          (stroke (width 0) (type default) (color 0 0 0 0))
          (fill (type none))
        )
        (polyline
          (pts
            (xy 1.27 -5.08)
            (xy 2.032 -5.08)
            (xy 2.032 5.08)
            (xy 1.27 5.08)
          )
          (stroke (width 0) (type default) (color 0 0 0 0))
          (fill (type none))
        )
        (polyline
          (pts
            (xy 1.27 -3.81)
            (xy 1.27 -6.35)
            (xy -1.27 -5.08)
            (xy 1.27 -3.81)
          )
          (stroke (width 0.254) (type default) (color 0 0 0 0))
          (fill (type none))
        )
        (polyline
          (pts
            (xy 1.27 1.27)
            (xy 1.27 -1.27)
            (xy -1.27 0)
            (xy 1.27 1.27)
          )
          (stroke (width 0.254) (type default) (color 0 0 0 0))
          (fill (type none))
        )
        (polyline
          (pts
            (xy 1.27 6.35)
            (xy 1.27 3.81)
            (xy -1.27 5.08)
            (xy 1.27 6.35)
          )
          (stroke (width 0.254) (type default) (color 0 0 0 0))
          (fill (type none))
        )
        (polyline
          (pts
            (xy -1.016 -3.81)
            (xy 0.508 -2.286)
            (xy -0.254 -2.286)
            (xy 0.508 -2.286)
            (xy 0.508 -3.048)
          )
          (stroke (width 0) (type default) (color 0 0 0 0))
          (fill (type none))
        )
        (polyline
          (pts
            (xy -1.016 1.27)
            (xy 0.508 2.794)
            (xy -0.254 2.794)
            (xy 0.508 2.794)
            (xy 0.508 2.032)
          )
          (stroke (width 0) (type default) (color 0 0 0 0))
          (fill (type none))
        )
        (polyline
          (pts
            (xy -1.016 6.35)
            (xy 0.508 7.874)
            (xy -0.254 7.874)
            (xy 0.508 7.874)
            (xy 0.508 7.112)
          )
          (stroke (width 0) (type default) (color 0 0 0 0))
          (fill (type none))
        )
        (polyline
          (pts
            (xy 0 -3.81)
            (xy 1.524 -2.286)
            (xy 0.762 -2.286)
            (xy 1.524 -2.286)
            (xy 1.524 -3.048)
          )
          (stroke (width 0) (type default) (color 0 0 0 0))
          (fill (type none))
        )
        (polyline
          (pts
            (xy 0 1.27)
            (xy 1.524 2.794)
            (xy 0.762 2.794)
            (xy 1.524 2.794)
            (xy 1.524 2.032)
          )
          (stroke (width 0) (type default) (color 0 0 0 0))
          (fill (type none))
        )
        (polyline
          (pts
            (xy 0 6.35)
            (xy 1.524 7.874)
            (xy 0.762 7.874)
            (xy 1.524 7.874)
            (xy 1.524 7.112)
          )
          (stroke (width 0) (type default) (color 0 0 0 0))
          (fill (type none))
        )
        (rectangle (start 1.27 -1.27) (end 1.27 1.27)
          (stroke (width 0) (type default) (color 0 0 0 0))
          (fill (type none))
        )
        (rectangle (start 1.27 1.27) (end 1.27 1.27)
          (stroke (width 0) (type default) (color 0 0 0 0))
          (fill (type none))
        )
        (rectangle (start 1.27 3.81) (end 1.27 6.35)
          (stroke (width 0) (type default) (color 0 0 0 0))
          (fill (type none))
        )
        (rectangle (start 1.27 6.35) (end 1.27 6.35)
          (stroke (width 0) (type default) (color 0 0 0 0))
          (fill (type none))
        )
        (circle (center 2.032 0) (radius 0.254) (stroke (width 0))           (stroke (width 0) (type default) (color 0 0 0 0))
          (fill (type outline))
        )
        (rectangle (start 2.794 8.382) (end -2.794 -7.62)
          (stroke (width 0.254) (type default) (color 0 0 0 0))
          (fill (type background))
        )
      )
      (symbol "LED_RGBA_1_1"
        (pin passive line (at -5.08 5.08 0) (length 2.54)
          (name "RK" (effects (font (size 1.27 1.27))))
          (number "1" (effects (font (size 1.27 1.27))))
        )
        (pin passive line (at -5.08 0 0) (length 2.54)
          (name "GK" (effects (font (size 1.27 1.27))))
          (number "2" (effects (font (size 1.27 1.27))))
        )
        (pin passive line (at -5.08 -5.08 0) (length 2.54)
          (name "BK" (effects (font (size 1.27 1.27))))
          (number "3" (effects (font (size 1.27 1.27))))
        )
        (pin passive line (at 5.08 0 180) (length 2.54)
          (name "A" (effects (font (size 1.27 1.27))))
          (number "4" (effects (font (size 1.27 1.27))))
        )
      )
    )
    (symbol "earring-v2:VBAT" (power) (pin_names (offset 0)) (in_bom yes) (on_board yes)
      (property "Reference" "#PWR" (id 0) (at 0 -3.81 0)
        (effects (font (size 1.27 1.27)) hide)
      )
      (property "Value" "VBAT" (id 1) (at 0 3.81 0)
        (effects (font (size 1.27 1.27)))
      )
      (property "Footprint" "" (id 2) (at 0 0 0)
        (effects (font (size 1.27 1.27)) hide)
      )
      (property "Datasheet" "" (id 3) (at 0 0 0)
        (effects (font (size 1.27 1.27)) hide)
      )
      (property "ki_keywords" "power-flag" (id 4) (at 0 0 0)
        (effects (font (size 1.27 1.27)) hide)
      )
      (property "ki_description" "Power symbol creates a global label with name \"VBUS\"" (id 5) (at 0 0 0)
        (effects (font (size 1.27 1.27)) hide)
      )
      (symbol "VBAT_0_1"
        (polyline
          (pts
            (xy -0.762 1.27)
            (xy 0 2.54)
          )
          (stroke (width 0) (type default) (color 0 0 0 0))
          (fill (type none))
        )
        (polyline
          (pts
            (xy 0 0)
            (xy 0 2.54)
          )
          (stroke (width 0) (type default) (color 0 0 0 0))
          (fill (type none))
        )
        (polyline
          (pts
            (xy 0 2.54)
            (xy 0.762 1.27)
          )
          (stroke (width 0) (type default) (color 0 0 0 0))
          (fill (type none))
        )
      )
      (symbol "VBAT_1_1"
        (pin power_in line (at 0 0 90) (length 0) hide
          (name "VBAT" (effects (font (size 1.27 1.27))))
          (number "1" (effects (font (size 1.27 1.27))))
        )
      )
    )
    (symbol "power:VDD" (power) (pin_names (offset 0)) (in_bom yes) (on_board yes)
      (property "Reference" "#PWR" (id 0) (at 0 -3.81 0)
        (effects (font (size 1.27 1.27)) hide)
      )
      (property "Value" "VDD" (id 1) (at 0 3.81 0)
        (effects (font (size 1.27 1.27)))
      )
      (property "Footprint" "" (id 2) (at 0 0 0)
        (effects (font (size 1.27 1.27)) hide)
      )
      (property "Datasheet" "" (id 3) (at 0 0 0)
        (effects (font (size 1.27 1.27)) hide)
      )
      (property "ki_keywords" "power-flag" (id 4) (at 0 0 0)
        (effects (font (size 1.27 1.27)) hide)
      )
      (property "ki_description" "Power symbol creates a global label with name \"VDD\"" (id 5) (at 0 0 0)
        (effects (font (size 1.27 1.27)) hide)
      )
      (symbol "VDD_0_1"
        (polyline
          (pts
            (xy -0.762 1.27)
            (xy 0 2.54)
          )
          (stroke (width 0) (type default) (color 0 0 0 0))
          (fill (type none))
        )
        (polyline
          (pts
            (xy 0 0)
            (xy 0 2.54)
          )
          (stroke (width 0) (type default) (color 0 0 0 0))
          (fill (type none))
        )
        (polyline
          (pts
            (xy 0 2.54)
            (xy 0.762 1.27)
          )
          (stroke (width 0) (type default) (color 0 0 0 0))
          (fill (type none))
        )
      )
      (symbol "VDD_1_1"
        (pin power_in line (at 0 0 90) (length 0) hide
          (name "VDD" (effects (font (size 1.27 1.27))))
          (number "1" (effects (font (size 1.27 1.27))))
        )
      )
    )
  )


  (text "Or  Everlight Elec 19-237/R6GHBHC-M07/2T " (at 146.05 30.48 180)
    (effects (font (size 3 3)) (justify right bottom))
    (uuid e88fe75f-76e6-449b-bd52-f86108ec48dd)
  )

  (global_label "LED1_R" (shape output) (at 60.96 58.42 0) (fields_autoplaced)
    (effects (font (size 1.27 1.27)) (justify left))
    (uuid c257d868-45c8-45df-a5c9-698ea8ab94d0)
    (property "Intersheet References" "${INTERSHEET_REFS}" (id 0) (at 70.2674 58.3406 0)
      (effects (font (size 1.27 1.27)) (justify left) hide)
    )
  )
  (global_label "LED1_G" (shape output) (at 60.96 63.5 0) (fields_autoplaced)
    (effects (font (size 1.27 1.27)) (justify left))
    (uuid cef09053-d8ab-4ee8-a6df-07cb3491ac6e)
    (property "Intersheet References" "${INTERSHEET_REFS}" (id 0) (at 70.2674 63.4206 0)
      (effects (font (size 1.27 1.27)) (justify left) hide)
    )
  )
  (global_label "LED1_B" (shape output) (at 60.96 68.58 0) (fields_autoplaced)
    (effects (font (size 1.27 1.27)) (justify left))
    (uuid fa3245e3-0921-44b0-b5b8-c8e0d62fc0c6)
    (property "Intersheet References" "${INTERSHEET_REFS}" (id 0) (at 70.2674 68.5006 0)
      (effects (font (size 1.27 1.27)) (justify left) hide)
    )
  )
  (global_label "LED2_R" (shape output) (at 60.96 81.28 0) (fields_autoplaced)
    (effects (font (size 1.27 1.27)) (justify left))
    (uuid 36c3fe6f-1626-4ddf-ad62-e0d9512ae965)
    (property "Intersheet References" "${INTERSHEET_REFS}" (id 0) (at 70.2674 81.2006 0)
      (effects (font (size 1.27 1.27)) (justify left) hide)
    )
  )
  (global_label "LED2_G" (shape output) (at 60.96 86.36 0) (fields_autoplaced)
    (effects (font (size 1.27 1.27)) (justify left))
    (uuid 9c6560e2-e1aa-492b-a00e-082d8fc2f574)
    (property "Intersheet References" "${INTERSHEET_REFS}" (id 0) (at 70.2674 86.2806 0)
      (effects (font (size 1.27 1.27)) (justify left) hide)
    )
  )
  (global_label "LED2_B" (shape output) (at 60.96 91.44 0) (fields_autoplaced)
    (effects (font (size 1.27 1.27)) (justify left))
    (uuid b9014654-5729-41bb-8839-7270458e84c1)
    (property "Intersheet References" "${INTERSHEET_REFS}" (id 0) (at 70.2674 91.3606 0)
      (effects (font (size 1.27 1.27)) (justify left) hide)
    )
  )
  (global_label "LED3_R" (shape output) (at 60.96 104.14 0) (fields_autoplaced)
    (effects (font (size 1.27 1.27)) (justify left))
    (uuid 86c143d4-1bd8-4f19-b90f-5f7e54608f1f)
    (property "Intersheet References" "${INTERSHEET_REFS}" (id 0) (at 70.2674 104.0606 0)
      (effects (font (size 1.27 1.27)) (justify left) hide)
    )
  )
  (global_label "LED3_G" (shape output) (at 60.96 109.22 0) (fields_autoplaced)
    (effects (font (size 1.27 1.27)) (justify left))
    (uuid 843f401a-f3f9-4645-bc19-ab79130368bc)
    (property "Intersheet References" "${INTERSHEET_REFS}" (id 0) (at 70.2674 109.1406 0)
      (effects (font (size 1.27 1.27)) (justify left) hide)
    )
  )
  (global_label "LED3_B" (shape output) (at 60.96 114.3 0) (fields_autoplaced)
    (effects (font (size 1.27 1.27)) (justify left))
    (uuid 962afaa7-f47f-46e8-bbbe-21717fd1507f)
    (property "Intersheet References" "${INTERSHEET_REFS}" (id 0) (at 70.2674 114.2206 0)
      (effects (font (size 1.27 1.27)) (justify left) hide)
    )
  )
  (global_label "LED4_R" (shape output) (at 60.96 127 0) (fields_autoplaced)
    (effects (font (size 1.27 1.27)) (justify left))
    (uuid 4e762149-e5a3-484a-a86d-2525fcebaf14)
    (property "Intersheet References" "${INTERSHEET_REFS}" (id 0) (at 70.2674 126.9206 0)
      (effects (font (size 1.27 1.27)) (justify left) hide)
    )
  )
  (global_label "LED4_G" (shape output) (at 60.96 132.08 0) (fields_autoplaced)
    (effects (font (size 1.27 1.27)) (justify left))
    (uuid 695e5a22-1ea5-4c4d-9d32-2a9b57ebc15c)
    (property "Intersheet References" "${INTERSHEET_REFS}" (id 0) (at 70.2674 132.0006 0)
      (effects (font (size 1.27 1.27)) (justify left) hide)
    )
  )
  (global_label "LED4_B" (shape output) (at 60.96 137.16 0) (fields_autoplaced)
    (effects (font (size 1.27 1.27)) (justify left))
    (uuid c45eff94-da76-418c-9929-b1f2a353a48b)
    (property "Intersheet References" "${INTERSHEET_REFS}" (id 0) (at 70.2674 137.0806 0)
      (effects (font (size 1.27 1.27)) (justify left) hide)
    )
  )
  (global_label "LED5_R" (shape output) (at 60.96 149.86 0) (fields_autoplaced)
    (effects (font (size 1.27 1.27)) (justify left))
    (uuid 72bb7cd3-3a01-42e8-bcb4-221da447b2a9)
    (property "Intersheet References" "${INTERSHEET_REFS}" (id 0) (at 70.2674 149.7806 0)
      (effects (font (size 1.27 1.27)) (justify left) hide)
    )
  )
  (global_label "LED5_G" (shape output) (at 60.96 154.94 0) (fields_autoplaced)
    (effects (font (size 1.27 1.27)) (justify left))
    (uuid 07090218-8c0e-4eb4-8d71-57ef468ecc04)
    (property "Intersheet References" "${INTERSHEET_REFS}" (id 0) (at 70.2674 154.8606 0)
      (effects (font (size 1.27 1.27)) (justify left) hide)
    )
  )
  (global_label "LED5_B" (shape output) (at 60.96 160.02 0) (fields_autoplaced)
    (effects (font (size 1.27 1.27)) (justify left))
    (uuid 4826676b-24e4-48d3-a3da-a8b166f6bd15)
    (property "Intersheet References" "${INTERSHEET_REFS}" (id 0) (at 70.2674 159.9406 0)
      (effects (font (size 1.27 1.27)) (justify left) hide)
    )
  )
  (global_label "LED6_R" (shape output) (at 60.96 172.72 0) (fields_autoplaced)
    (effects (font (size 1.27 1.27)) (justify left))
    (uuid caf3e181-e5c4-4f29-a782-a86a81d494fb)
    (property "Intersheet References" "${INTERSHEET_REFS}" (id 0) (at 70.2674 172.6406 0)
      (effects (font (size 1.27 1.27)) (justify left) hide)
    )
  )
  (global_label "LED6_G" (shape output) (at 60.96 177.8 0) (fields_autoplaced)
    (effects (font (size 1.27 1.27)) (justify left))
    (uuid b5456b78-1a39-4bd5-a3b4-67e98217146d)
    (property "Intersheet References" "${INTERSHEET_REFS}" (id 0) (at 70.2674 177.7206 0)
      (effects (font (size 1.27 1.27)) (justify left) hide)
    )
  )
  (global_label "LED6_B" (shape output) (at 60.96 182.88 0) (fields_autoplaced)
    (effects (font (size 1.27 1.27)) (justify left))
    (uuid 5f21d6e3-1567-4a4d-a310-3fc597a17235)
    (property "Intersheet References" "${INTERSHEET_REFS}" (id 0) (at 70.2674 182.8006 0)
      (effects (font (size 1.27 1.27)) (justify left) hide)
    )
  )
  (global_label "LED7_R" (shape output) (at 122.555 55.88 0) (fields_autoplaced)
    (effects (font (size 1.27 1.27)) (justify left))
    (uuid d7fff939-7c30-43fd-80ca-c40dc9852e06)
    (property "Intersheet References" "${INTERSHEET_REFS}" (id 0) (at 131.8624 55.8006 0)
      (effects (font (size 1.27 1.27)) (justify left) hide)
    )
  )
  (global_label "LED7_G" (shape output) (at 122.555 60.96 0) (fields_autoplaced)
    (effects (font (size 1.27 1.27)) (justify left))
    (uuid 4cfdba53-99a0-48d3-9393-3892d39139cb)
    (property "Intersheet References" "${INTERSHEET_REFS}" (id 0) (at 131.8624 60.8806 0)
      (effects (font (size 1.27 1.27)) (justify left) hide)
    )
  )
  (global_label "LED7_B" (shape output) (at 122.555 66.04 0) (fields_autoplaced)
    (effects (font (size 1.27 1.27)) (justify left))
    (uuid ebbdc308-0522-4c28-9b50-7e3f0fa67ddb)
    (property "Intersheet References" "${INTERSHEET_REFS}" (id 0) (at 131.8624 65.9606 0)
      (effects (font (size 1.27 1.27)) (justify left) hide)
    )
  )
  (global_label "LED8_R" (shape output) (at 122.555 78.74 0) (fields_autoplaced)
    (effects (font (size 1.27 1.27)) (justify left))
    (uuid c94be118-1128-47ff-aaae-e62edb2d6ff1)
    (property "Intersheet References" "${INTERSHEET_REFS}" (id 0) (at 131.8624 78.6606 0)
      (effects (font (size 1.27 1.27)) (justify left) hide)
    )
  )
  (global_label "LED8_G" (shape output) (at 122.555 83.82 0) (fields_autoplaced)
    (effects (font (size 1.27 1.27)) (justify left))
    (uuid d5bfc514-2b9b-48c4-8ec4-1d69e02c0b6f)
    (property "Intersheet References" "${INTERSHEET_REFS}" (id 0) (at 131.8624 83.7406 0)
      (effects (font (size 1.27 1.27)) (justify left) hide)
    )
  )
  (global_label "LED8_B" (shape output) (at 122.555 88.9 0) (fields_autoplaced)
    (effects (font (size 1.27 1.27)) (justify left))
    (uuid 3a75c306-f85e-41b4-8fb4-e56e6cb38199)
    (property "Intersheet References" "${INTERSHEET_REFS}" (id 0) (at 131.8624 88.8206 0)
      (effects (font (size 1.27 1.27)) (justify left) hide)
    )
  )
  (global_label "LED9_R" (shape output) (at 122.555 101.6 0) (fields_autoplaced)
    (effects (font (size 1.27 1.27)) (justify left))
    (uuid 3030e08d-40af-42b5-b423-a3c609c78dc9)
    (property "Intersheet References" "${INTERSHEET_REFS}" (id 0) (at 131.8624 101.5206 0)
      (effects (font (size 1.27 1.27)) (justify left) hide)
    )
  )
  (global_label "LED9_G" (shape output) (at 122.555 106.68 0) (fields_autoplaced)
    (effects (font (size 1.27 1.27)) (justify left))
    (uuid 2e819d49-65e2-474d-acad-941a336a306e)
    (property "Intersheet References" "${INTERSHEET_REFS}" (id 0) (at 131.8624 106.6006 0)
      (effects (font (size 1.27 1.27)) (justify left) hide)
    )
  )
  (global_label "LED9_B" (shape output) (at 122.555 111.76 0) (fields_autoplaced)
    (effects (font (size 1.27 1.27)) (justify left))
    (uuid a90c5c9a-66ae-463b-a984-95fa5a1cd1cb)
    (property "Intersheet References" "${INTERSHEET_REFS}" (id 0) (at 131.8624 111.6806 0)
      (effects (font (size 1.27 1.27)) (justify left) hide)
    )
  )
  (global_label "LED10_R" (shape output) (at 122.555 124.46 0) (fields_autoplaced)
    (effects (font (size 1.27 1.27)) (justify left))
    (uuid 45538117-808f-463c-b6bf-7eb04d67dd85)
    (property "Intersheet References" "${INTERSHEET_REFS}" (id 0) (at 133.0719 124.3806 0)
      (effects (font (size 1.27 1.27)) (justify left) hide)
    )
  )
  (global_label "LED10_G" (shape output) (at 122.555 129.54 0) (fields_autoplaced)
    (effects (font (size 1.27 1.27)) (justify left))
    (uuid 1050b4d2-8190-47c5-ac4a-6c673e1338f7)
    (property "Intersheet References" "${INTERSHEET_REFS}" (id 0) (at 133.0719 129.4606 0)
      (effects (font (size 1.27 1.27)) (justify left) hide)
    )
  )
  (global_label "LED10_B" (shape output) (at 122.555 134.62 0) (fields_autoplaced)
    (effects (font (size 1.27 1.27)) (justify left))
    (uuid e0a27b48-2d8d-4d27-8595-b4298d991a01)
    (property "Intersheet References" "${INTERSHEET_REFS}" (id 0) (at 133.0719 134.5406 0)
      (effects (font (size 1.27 1.27)) (justify left) hide)
    )
  )
  (global_label "LED11_R" (shape output) (at 122.555 147.32 0) (fields_autoplaced)
    (effects (font (size 1.27 1.27)) (justify left))
    (uuid 679a8807-4520-4ec1-b405-0136e073a94e)
    (property "Intersheet References" "${INTERSHEET_REFS}" (id 0) (at 133.0719 147.2406 0)
      (effects (font (size 1.27 1.27)) (justify left) hide)
    )
  )
  (global_label "LED11_G" (shape output) (at 122.555 152.4 0) (fields_autoplaced)
    (effects (font (size 1.27 1.27)) (justify left))
    (uuid 11b8f493-c5ef-4dc1-9674-8af0a917ebac)
    (property "Intersheet References" "${INTERSHEET_REFS}" (id 0) (at 133.0719 152.3206 0)
      (effects (font (size 1.27 1.27)) (justify left) hide)
    )
  )
  (global_label "LED11_B" (shape output) (at 122.555 157.48 0) (fields_autoplaced)
    (effects (font (size 1.27 1.27)) (justify left))
    (uuid 56d2fe50-4151-4119-91b5-2ed07c7e08b5)
    (property "Intersheet References" "${INTERSHEET_REFS}" (id 0) (at 133.0719 157.4006 0)
      (effects (font (size 1.27 1.27)) (justify left) hide)
    )
  )
  (global_label "LED12_R" (shape output) (at 122.555 170.18 0) (fields_autoplaced)
    (effects (font (size 1.27 1.27)) (justify left))
    (uuid dc86af23-0998-4f73-a110-4b7223737e8f)
    (property "Intersheet References" "${INTERSHEET_REFS}" (id 0) (at 133.0719 170.1006 0)
      (effects (font (size 1.27 1.27)) (justify left) hide)
    )
  )
  (global_label "LED12_G" (shape output) (at 122.555 175.26 0) (fields_autoplaced)
    (effects (font (size 1.27 1.27)) (justify left))
    (uuid f1e55b39-3a88-4dd3-9a99-00bdb4f731b9)
    (property "Intersheet References" "${INTERSHEET_REFS}" (id 0) (at 133.0719 175.1806 0)
      (effects (font (size 1.27 1.27)) (justify left) hide)
    )
  )
  (global_label "LED12_B" (shape output) (at 122.555 180.34 0) (fields_autoplaced)
    (effects (font (size 1.27 1.27)) (justify left))
    (uuid 952c45f0-6c62-4edc-b4ab-b062396722e5)
    (property "Intersheet References" "${INTERSHEET_REFS}" (id 0) (at 133.0719 180.2606 0)
      (effects (font (size 1.27 1.27)) (justify left) hide)
    )
  )
  (global_label "LED13_R" (shape output) (at 204.47 30.48 0) (fields_autoplaced)
    (effects (font (size 1.27 1.27)) (justify left))
    (uuid b988a338-ee05-452b-9269-9dfbb684a905)
    (property "Intersheet References" "${INTERSHEET_REFS}" (id 0) (at 214.9869 30.4006 0)
      (effects (font (size 1.27 1.27)) (justify left) hide)
    )
  )
  (global_label "LED13_G" (shape output) (at 204.47 35.56 0) (fields_autoplaced)
    (effects (font (size 1.27 1.27)) (justify left))
    (uuid d60a1d98-b17f-46ea-928a-ec1dffe86a1d)
    (property "Intersheet References" "${INTERSHEET_REFS}" (id 0) (at 214.9869 35.4806 0)
      (effects (font (size 1.27 1.27)) (justify left) hide)
    )
  )
  (global_label "LED13_B" (shape output) (at 204.47 40.64 0) (fields_autoplaced)
    (effects (font (size 1.27 1.27)) (justify left))
    (uuid 9821d5f2-36ce-4fc9-a5bd-53f9d1b7ceb9)
    (property "Intersheet References" "${INTERSHEET_REFS}" (id 0) (at 214.9869 40.5606 0)
      (effects (font (size 1.27 1.27)) (justify left) hide)
    )
  )
  (global_label "LED14_R" (shape output) (at 204.47 53.34 0) (fields_autoplaced)
    (effects (font (size 1.27 1.27)) (justify left))
    (uuid d1ed86bc-0b7f-4bc8-8ad0-a4926e9e20e1)
    (property "Intersheet References" "${INTERSHEET_REFS}" (id 0) (at 214.9869 53.2606 0)
      (effects (font (size 1.27 1.27)) (justify left) hide)
    )
  )
  (global_label "LED14_G" (shape output) (at 204.47 58.42 0) (fields_autoplaced)
    (effects (font (size 1.27 1.27)) (justify left))
    (uuid cb8df90c-050a-49c5-aae0-06b23f551713)
    (property "Intersheet References" "${INTERSHEET_REFS}" (id 0) (at 214.9869 58.3406 0)
      (effects (font (size 1.27 1.27)) (justify left) hide)
    )
  )
  (global_label "LED14_B" (shape output) (at 204.47 63.5 0) (fields_autoplaced)
    (effects (font (size 1.27 1.27)) (justify left))
    (uuid b5fc0802-a204-42cd-a234-71ea187fa435)
    (property "Intersheet References" "${INTERSHEET_REFS}" (id 0) (at 214.9869 63.4206 0)
      (effects (font (size 1.27 1.27)) (justify left) hide)
    )
  )
  (global_label "LED15_R" (shape output) (at 204.47 76.2 0) (fields_autoplaced)
    (effects (font (size 1.27 1.27)) (justify left))
    (uuid a8e185cd-4227-42ba-8771-4114e5949ddc)
    (property "Intersheet References" "${INTERSHEET_REFS}" (id 0) (at 214.9869 76.1206 0)
      (effects (font (size 1.27 1.27)) (justify left) hide)
    )
  )
  (global_label "LED15_G" (shape output) (at 204.47 81.28 0) (fields_autoplaced)
    (effects (font (size 1.27 1.27)) (justify left))
    (uuid 442242c7-6834-4da5-a053-289f9db1f37d)
    (property "Intersheet References" "${INTERSHEET_REFS}" (id 0) (at 214.9869 81.2006 0)
      (effects (font (size 1.27 1.27)) (justify left) hide)
    )
  )
  (global_label "LED15_B" (shape output) (at 204.47 86.36 0) (fields_autoplaced)
    (effects (font (size 1.27 1.27)) (justify left))
    (uuid 74eb153f-fae3-4d61-9137-4b9023b38307)
    (property "Intersheet References" "${INTERSHEET_REFS}" (id 0) (at 214.9869 86.2806 0)
      (effects (font (size 1.27 1.27)) (justify left) hide)
    )
  )
  (global_label "LED16_R" (shape output) (at 204.47 99.06 0) (fields_autoplaced)
    (effects (font (size 1.27 1.27)) (justify left))
    (uuid effb7dc1-33a3-487e-a212-b9184a024993)
    (property "Intersheet References" "${INTERSHEET_REFS}" (id 0) (at 214.9869 98.9806 0)
      (effects (font (size 1.27 1.27)) (justify left) hide)
    )
  )
  (global_label "LED16_G" (shape output) (at 204.47 104.14 0) (fields_autoplaced)
    (effects (font (size 1.27 1.27)) (justify left))
    (uuid c683146c-dabe-4427-a271-6444ba30f6aa)
    (property "Intersheet References" "${INTERSHEET_REFS}" (id 0) (at 214.9869 104.0606 0)
      (effects (font (size 1.27 1.27)) (justify left) hide)
    )
  )
  (global_label "LED16_B" (shape output) (at 204.47 109.22 0) (fields_autoplaced)
    (effects (font (size 1.27 1.27)) (justify left))
    (uuid cc8298e8-7f83-46a1-82d8-8ed9ac51260e)
    (property "Intersheet References" "${INTERSHEET_REFS}" (id 0) (at 214.9869 109.1406 0)
      (effects (font (size 1.27 1.27)) (justify left) hide)
    )
  )
  (global_label "LED17_R" (shape output) (at 204.47 121.92 0) (fields_autoplaced)
    (effects (font (size 1.27 1.27)) (justify left))
    (uuid 9e169922-2803-46b7-ad85-9d66cac2d8c2)
    (property "Intersheet References" "${INTERSHEET_REFS}" (id 0) (at 214.9869 121.8406 0)
      (effects (font (size 1.27 1.27)) (justify left) hide)
    )
  )
  (global_label "LED17_G" (shape output) (at 204.47 127 0) (fields_autoplaced)
    (effects (font (size 1.27 1.27)) (justify left))
    (uuid ffc558f2-451e-41bf-8c42-1d85f46c2e91)
    (property "Intersheet References" "${INTERSHEET_REFS}" (id 0) (at 214.9869 126.9206 0)
      (effects (font (size 1.27 1.27)) (justify left) hide)
    )
  )
  (global_label "LED17_B" (shape output) (at 204.47 132.08 0) (fields_autoplaced)
    (effects (font (size 1.27 1.27)) (justify left))
    (uuid 38c16df6-dd86-4e1f-847e-b9b3c054baa5)
    (property "Intersheet References" "${INTERSHEET_REFS}" (id 0) (at 214.9869 132.0006 0)
      (effects (font (size 1.27 1.27)) (justify left) hide)
    )
  )
  (global_label "LED18_R" (shape output) (at 204.47 144.78 0) (fields_autoplaced)
    (effects (font (size 1.27 1.27)) (justify left))
    (uuid 91feb8d4-ca46-4108-a6a6-e448f6274f47)
    (property "Intersheet References" "${INTERSHEET_REFS}" (id 0) (at 214.9869 144.7006 0)
      (effects (font (size 1.27 1.27)) (justify left) hide)
    )
  )
  (global_label "LED18_G" (shape output) (at 204.47 149.86 0) (fields_autoplaced)
    (effects (font (size 1.27 1.27)) (justify left))
    (uuid d64e2096-2087-485c-a152-54e871879d5f)
    (property "Intersheet References" "${INTERSHEET_REFS}" (id 0) (at 214.9869 149.7806 0)
      (effects (font (size 1.27 1.27)) (justify left) hide)
    )
  )
  (global_label "LED18_B" (shape output) (at 204.47 154.94 0) (fields_autoplaced)
    (effects (font (size 1.27 1.27)) (justify left))
    (uuid 16d36580-5bc5-42f9-960d-1373fc53d7da)
    (property "Intersheet References" "${INTERSHEET_REFS}" (id 0) (at 214.9869 154.8606 0)
      (effects (font (size 1.27 1.27)) (justify left) hide)
    )
  )
  (global_label "LED19_R" (shape output) (at 247.65 29.21 0) (fields_autoplaced)
    (effects (font (size 1.27 1.27)) (justify left))
    (uuid 40dc9b56-be39-41bc-8822-9c138a87c7e3)
    (property "Intersheet References" "${INTERSHEET_REFS}" (id 0) (at 258.1669 29.1306 0)
      (effects (font (size 1.27 1.27)) (justify left) hide)
    )
  )
  (global_label "LED19_G" (shape output) (at 247.65 34.29 0) (fields_autoplaced)
    (effects (font (size 1.27 1.27)) (justify left))
    (uuid 4a625b2d-c7e8-4a57-b856-e1fc959eaca9)
    (property "Intersheet References" "${INTERSHEET_REFS}" (id 0) (at 258.1669 34.2106 0)
      (effects (font (size 1.27 1.27)) (justify left) hide)
    )
  )
  (global_label "LED19_B" (shape output) (at 247.65 39.37 0) (fields_autoplaced)
    (effects (font (size 1.27 1.27)) (justify left))
    (uuid 01722ebc-9045-4b2c-a30f-48063fdbbe16)
    (property "Intersheet References" "${INTERSHEET_REFS}" (id 0) (at 258.1669 39.2906 0)
      (effects (font (size 1.27 1.27)) (justify left) hide)
    )
  )
  (global_label "LED20_R" (shape output) (at 247.65 52.07 0) (fields_autoplaced)
    (effects (font (size 1.27 1.27)) (justify left))
    (uuid 2d259ee8-2ab6-42c4-b474-73f8b58879c3)
    (property "Intersheet References" "${INTERSHEET_REFS}" (id 0) (at 258.1669 51.9906 0)
      (effects (font (size 1.27 1.27)) (justify left) hide)
    )
  )
  (global_label "LED20_G" (shape output) (at 247.65 57.15 0) (fields_autoplaced)
    (effects (font (size 1.27 1.27)) (justify left))
    (uuid c97dc8e2-6403-4396-9b4b-6123d66353be)
    (property "Intersheet References" "${INTERSHEET_REFS}" (id 0) (at 258.1669 57.0706 0)
      (effects (font (size 1.27 1.27)) (justify left) hide)
    )
  )
  (global_label "LED20_B" (shape output) (at 247.65 62.23 0) (fields_autoplaced)
    (effects (font (size 1.27 1.27)) (justify left))
    (uuid 6dfe3883-63f0-4f74-8856-f47ddcc9a0cd)
    (property "Intersheet References" "${INTERSHEET_REFS}" (id 0) (at 258.1669 62.1506 0)
      (effects (font (size 1.27 1.27)) (justify left) hide)
    )
  )
  (global_label "LED21_R" (shape output) (at 247.65 74.93 0) (fields_autoplaced)
    (effects (font (size 1.27 1.27)) (justify left))
    (uuid b2f68148-0e6e-44f9-9561-1aab73a65880)
    (property "Intersheet References" "${INTERSHEET_REFS}" (id 0) (at 258.1669 74.8506 0)
      (effects (font (size 1.27 1.27)) (justify left) hide)
    )
  )
  (global_label "LED21_G" (shape output) (at 247.65 80.01 0) (fields_autoplaced)
    (effects (font (size 1.27 1.27)) (justify left))
    (uuid b8d4ee80-321d-42a5-a004-0ef630127384)
    (property "Intersheet References" "${INTERSHEET_REFS}" (id 0) (at 258.1669 79.9306 0)
      (effects (font (size 1.27 1.27)) (justify left) hide)
    )
  )
  (global_label "LED21_B" (shape output) (at 247.65 85.09 0) (fields_autoplaced)
    (effects (font (size 1.27 1.27)) (justify left))
    (uuid e6f7ac3a-4c07-4c28-8e01-0596553ba77e)
    (property "Intersheet References" "${INTERSHEET_REFS}" (id 0) (at 258.1669 85.0106 0)
      (effects (font (size 1.27 1.27)) (justify left) hide)
    )
  )
  (global_label "LED22_R" (shape output) (at 247.65 97.79 0) (fields_autoplaced)
    (effects (font (size 1.27 1.27)) (justify left))
    (uuid 6b4632bd-450a-4309-98fb-cf7face236f5)
    (property "Intersheet References" "${INTERSHEET_REFS}" (id 0) (at 258.1669 97.7106 0)
      (effects (font (size 1.27 1.27)) (justify left) hide)
    )
  )
  (global_label "LED22_G" (shape output) (at 247.65 102.87 0) (fields_autoplaced)
    (effects (font (size 1.27 1.27)) (justify left))
    (uuid 5a0a2dc1-9bb0-40ae-9cdc-f833ec0dc6de)
    (property "Intersheet References" "${INTERSHEET_REFS}" (id 0) (at 258.1669 102.7906 0)
      (effects (font (size 1.27 1.27)) (justify left) hide)
    )
  )
  (global_label "LED22_B" (shape output) (at 247.65 107.95 0) (fields_autoplaced)
    (effects (font (size 1.27 1.27)) (justify left))
    (uuid cefbf35a-52c0-45b3-84d7-e6533312f160)
    (property "Intersheet References" "${INTERSHEET_REFS}" (id 0) (at 258.1669 107.8706 0)
      (effects (font (size 1.27 1.27)) (justify left) hide)
    )
  )
  (global_label "LED23_R" (shape output) (at 247.65 120.65 0) (fields_autoplaced)
    (effects (font (size 1.27 1.27)) (justify left))
    (uuid 0e0d58c8-68cb-4761-bce4-3d76385164a6)
    (property "Intersheet References" "${INTERSHEET_REFS}" (id 0) (at 258.1669 120.5706 0)
      (effects (font (size 1.27 1.27)) (justify left) hide)
    )
  )
  (global_label "LED23_G" (shape output) (at 247.65 125.73 0) (fields_autoplaced)
    (effects (font (size 1.27 1.27)) (justify left))
    (uuid fd547265-511f-4614-9524-9e102b1a5a82)
    (property "Intersheet References" "${INTERSHEET_REFS}" (id 0) (at 258.1669 125.6506 0)
      (effects (font (size 1.27 1.27)) (justify left) hide)
    )
  )
  (global_label "LED23_B" (shape output) (at 247.65 130.81 0) (fields_autoplaced)
    (effects (font (size 1.27 1.27)) (justify left))
    (uuid 1d04793b-6d68-418d-b9d8-c8ef9e9bfa70)
    (property "Intersheet References" "${INTERSHEET_REFS}" (id 0) (at 258.1669 130.7306 0)
      (effects (font (size 1.27 1.27)) (justify left) hide)
    )
  )
  (global_label "LED24_R" (shape output) (at 247.65 143.51 0) (fields_autoplaced)
    (effects (font (size 1.27 1.27)) (justify left))
    (uuid db7929d8-490a-4dd2-9fd2-af279531a865)
    (property "Intersheet References" "${INTERSHEET_REFS}" (id 0) (at 258.1669 143.4306 0)
      (effects (font (size 1.27 1.27)) (justify left) hide)
    )
  )
  (global_label "LED24_G" (shape output) (at 247.65 148.59 0) (fields_autoplaced)
    (effects (font (size 1.27 1.27)) (justify left))
    (uuid 0c25c78c-f763-40fa-a907-a954cefc4227)
    (property "Intersheet References" "${INTERSHEET_REFS}" (id 0) (at 258.1669 148.5106 0)
      (effects (font (size 1.27 1.27)) (justify left) hide)
    )
  )
  (global_label "LED24_B" (shape output) (at 247.65 153.67 0) (fields_autoplaced)
    (effects (font (size 1.27 1.27)) (justify left))
    (uuid 229bce61-9d60-4a4e-97e4-fb45f63c136a)
    (property "Intersheet References" "${INTERSHEET_REFS}" (id 0) (at 258.1669 153.5906 0)
      (effects (font (size 1.27 1.27)) (justify left) hide)
    )
  )

  (symbol (lib_id "earring-v2:VBAT") (at 50.8 63.5 0) (unit 1)
    (in_bom yes) (on_board yes) (fields_autoplaced)
    (uuid c53923cb-12f9-41ff-a5e3-89d4f5c36cf0)
    (property "Reference" "#PWR0145" (id 0) (at 50.8 67.31 0)
      (effects (font (size 1.27 1.27)) hide)
    )
    (property "Value" "VBAT" (id 1) (at 50.8 59.055 0))
    (property "Footprint" "" (id 2) (at 50.8 63.5 0)
      (effects (font (size 1.27 1.27)) hide)
    )
    (property "Datasheet" "" (id 3) (at 50.8 63.5 0)
      (effects (font (size 1.27 1.27)) hide)
    )
    (pin "1" (uuid c0e0bea8-f6f6-4e91-9c60-a4cb2c3459b0))
  )

  (symbol (lib_id "earring-v2:VBAT") (at 50.8 86.36 0) (unit 1)
    (in_bom yes) (on_board yes) (fields_autoplaced)
    (uuid 260a0b3b-906a-4575-8cce-2cae59f96b74)
    (property "Reference" "#PWR0138" (id 0) (at 50.8 90.17 0)
      (effects (font (size 1.27 1.27)) hide)
    )
    (property "Value" "VBAT" (id 1) (at 50.8 81.915 0))
    (property "Footprint" "" (id 2) (at 50.8 86.36 0)
      (effects (font (size 1.27 1.27)) hide)
    )
    (property "Datasheet" "" (id 3) (at 50.8 86.36 0)
      (effects (font (size 1.27 1.27)) hide)
    )
    (pin "1" (uuid f58c5161-0e2b-42f9-8f36-e22ccc45289e))
  )

  (symbol (lib_id "earring-v2:VBAT") (at 50.8 109.22 0) (unit 1)
    (in_bom yes) (on_board yes) (fields_autoplaced)
    (uuid 855cff7b-bf13-4d49-a752-3140dddd17d5)
    (property "Reference" "#PWR0137" (id 0) (at 50.8 113.03 0)
      (effects (font (size 1.27 1.27)) hide)
    )
    (property "Value" "VBAT" (id 1) (at 50.8 104.775 0))
    (property "Footprint" "" (id 2) (at 50.8 109.22 0)
      (effects (font (size 1.27 1.27)) hide)
    )
    (property "Datasheet" "" (id 3) (at 50.8 109.22 0)
      (effects (font (size 1.27 1.27)) hide)
    )
    (pin "1" (uuid 280261cf-f94b-4589-9ba6-98840e56e33d))
  )

  (symbol (lib_id "earring-v2:VBAT") (at 50.8 132.08 0) (unit 1)
    (in_bom yes) (on_board yes) (fields_autoplaced)
    (uuid 7b8c0ccc-b547-490f-b9d2-ac207dab3cfb)
    (property "Reference" "#PWR0139" (id 0) (at 50.8 135.89 0)
      (effects (font (size 1.27 1.27)) hide)
    )
    (property "Value" "VBAT" (id 1) (at 50.8 127.635 0))
    (property "Footprint" "" (id 2) (at 50.8 132.08 0)
      (effects (font (size 1.27 1.27)) hide)
    )
    (property "Datasheet" "" (id 3) (at 50.8 132.08 0)
      (effects (font (size 1.27 1.27)) hide)
    )
    (pin "1" (uuid e8c110ea-d2d0-4f75-8a2d-7dd73ebf9048))
  )

  (symbol (lib_id "earring-v2:VBAT") (at 50.8 154.94 0) (unit 1)
    (in_bom yes) (on_board yes) (fields_autoplaced)
    (uuid a3dd2e45-70fa-4f10-8b6c-8b65813750cd)
    (property "Reference" "#PWR0144" (id 0) (at 50.8 158.75 0)
      (effects (font (size 1.27 1.27)) hide)
    )
    (property "Value" "VBAT" (id 1) (at 50.8 150.495 0))
    (property "Footprint" "" (id 2) (at 50.8 154.94 0)
      (effects (font (size 1.27 1.27)) hide)
    )
    (property "Datasheet" "" (id 3) (at 50.8 154.94 0)
      (effects (font (size 1.27 1.27)) hide)
    )
    (pin "1" (uuid f2060c17-61cb-468f-bf1a-6629e3a28cbc))
  )

  (symbol (lib_id "power:VDD") (at 50.8 177.8 0) (unit 1)
    (in_bom yes) (on_board yes) (fields_autoplaced)
    (uuid a09687c4-1ebc-425b-b9f6-e2eeb1a1dc20)
    (property "Reference" "#PWR0107" (id 0) (at 50.8 181.61 0)
      (effects (font (size 1.27 1.27)) hide)
    )
    (property "Value" "VDD" (id 1) (at 50.8 173.99 0))
    (property "Footprint" "" (id 2) (at 50.8 177.8 0)
      (effects (font (size 1.27 1.27)) hide)
    )
    (property "Datasheet" "" (id 3) (at 50.8 177.8 0)
      (effects (font (size 1.27 1.27)) hide)
    )
    (pin "1" (uuid 48f09a8e-7775-45e3-b330-fa062b567481))
  )

  (symbol (lib_id "earring-v2:VBAT") (at 112.395 60.96 0) (unit 1)
    (in_bom yes) (on_board yes) (fields_autoplaced)
    (uuid 6d29d31d-311b-46e1-bca2-65e60aba1657)
    (property "Reference" "#PWR0147" (id 0) (at 112.395 64.77 0)
      (effects (font (size 1.27 1.27)) hide)
    )
    (property "Value" "VBAT" (id 1) (at 112.395 56.515 0))
    (property "Footprint" "" (id 2) (at 112.395 60.96 0)
      (effects (font (size 1.27 1.27)) hide)
    )
    (property "Datasheet" "" (id 3) (at 112.395 60.96 0)
      (effects (font (size 1.27 1.27)) hide)
    )
    (pin "1" (uuid 35a84c85-8b96-43a0-aa21-431bde62e5e5))
  )

  (symbol (lib_id "earring-v2:VBAT") (at 112.395 83.82 0) (unit 1)
    (in_bom yes) (on_board yes) (fields_autoplaced)
    (uuid 01d385df-19f1-4cb5-b93d-f356e2e82610)
    (property "Reference" "#PWR0146" (id 0) (at 112.395 87.63 0)
      (effects (font (size 1.27 1.27)) hide)
    )
    (property "Value" "VBAT" (id 1) (at 112.395 79.375 0))
    (property "Footprint" "" (id 2) (at 112.395 83.82 0)
      (effects (font (size 1.27 1.27)) hide)
    )
    (property "Datasheet" "" (id 3) (at 112.395 83.82 0)
      (effects (font (size 1.27 1.27)) hide)
    )
    (pin "1" (uuid aa451ef4-0dce-4444-8474-2278d34dcb37))
  )

  (symbol (lib_id "earring-v2:VBAT") (at 112.395 106.68 0) (unit 1)
    (in_bom yes) (on_board yes) (fields_autoplaced)
    (uuid eda548e4-592e-4a45-9757-0a267035016f)
    (property "Reference" "#PWR0141" (id 0) (at 112.395 110.49 0)
      (effects (font (size 1.27 1.27)) hide)
    )
    (property "Value" "VBAT" (id 1) (at 112.395 102.235 0))
    (property "Footprint" "" (id 2) (at 112.395 106.68 0)
      (effects (font (size 1.27 1.27)) hide)
    )
    (property "Datasheet" "" (id 3) (at 112.395 106.68 0)
      (effects (font (size 1.27 1.27)) hide)
    )
    (pin "1" (uuid 53c3ebee-3628-4647-9f3d-db6a03bec5dc))
  )

  (symbol (lib_id "earring-v2:VBAT") (at 112.395 129.54 0) (unit 1)
    (in_bom yes) (on_board yes) (fields_autoplaced)
    (uuid 4793f0e6-89d8-4c85-bdc1-21026625c4c0)
    (property "Reference" "#PWR0140" (id 0) (at 112.395 133.35 0)
      (effects (font (size 1.27 1.27)) hide)
    )
    (property "Value" "VBAT" (id 1) (at 112.395 125.095 0))
    (property "Footprint" "" (id 2) (at 112.395 129.54 0)
      (effects (font (size 1.27 1.27)) hide)
    )
    (property "Datasheet" "" (id 3) (at 112.395 129.54 0)
      (effects (font (size 1.27 1.27)) hide)
    )
    (pin "1" (uuid efd2b7d4-cafd-400f-aac8-cd6000105c1b))
  )

  (symbol (lib_id "earring-v2:VBAT") (at 112.395 152.4 0) (unit 1)
    (in_bom yes) (on_board yes) (fields_autoplaced)
    (uuid 3f9784f5-b2c2-4b8d-bf97-4a04463c5dd1)
    (property "Reference" "#PWR0142" (id 0) (at 112.395 156.21 0)
      (effects (font (size 1.27 1.27)) hide)
    )
    (property "Value" "VBAT" (id 1) (at 112.395 147.955 0))
    (property "Footprint" "" (id 2) (at 112.395 152.4 0)
      (effects (font (size 1.27 1.27)) hide)
    )
    (property "Datasheet" "" (id 3) (at 112.395 152.4 0)
      (effects (font (size 1.27 1.27)) hide)
    )
    (pin "1" (uuid b13d18e7-41e2-4e12-8c80-a3748b5033ae))
  )

  (symbol (lib_id "earring-v2:VBAT") (at 112.395 175.26 0) (unit 1)
    (in_bom yes) (on_board yes) (fields_autoplaced)
    (uuid 830c0062-43bd-475f-a03b-862bb5b35ba1)
    (property "Reference" "#PWR0143" (id 0) (at 112.395 179.07 0)
      (effects (font (size 1.27 1.27)) hide)
    )
    (property "Value" "VBAT" (id 1) (at 112.395 170.815 0))
    (property "Footprint" "" (id 2) (at 112.395 175.26 0)
      (effects (font (size 1.27 1.27)) hide)
    )
    (property "Datasheet" "" (id 3) (at 112.395 175.26 0)
      (effects (font (size 1.27 1.27)) hide)
    )
    (pin "1" (uuid 4ac9a302-ab69-41c1-a8b7-bdeb39ba1fd1))
  )

  (symbol (lib_id "earring-v2:VBAT") (at 194.31 35.56 0) (unit 1)
    (in_bom yes) (on_board yes) (fields_autoplaced)
    (uuid dce0472c-7916-411a-af65-33f98cc3f300)
    (property "Reference" "#PWR0158" (id 0) (at 194.31 39.37 0)
      (effects (font (size 1.27 1.27)) hide)
    )
    (property "Value" "VBAT" (id 1) (at 194.31 31.115 0))
    (property "Footprint" "" (id 2) (at 194.31 35.56 0)
      (effects (font (size 1.27 1.27)) hide)
    )
    (property "Datasheet" "" (id 3) (at 194.31 35.56 0)
      (effects (font (size 1.27 1.27)) hide)
    )
    (pin "1" (uuid 6ced5b37-affd-4e00-b087-6784f5360022))
  )

  (symbol (lib_id "earring-v2:VBAT") (at 194.31 58.42 0) (unit 1)
    (in_bom yes) (on_board yes) (fields_autoplaced)
    (uuid 38723e74-c812-4b84-8682-e358d8008858)
    (property "Reference" "#PWR0159" (id 0) (at 194.31 62.23 0)
      (effects (font (size 1.27 1.27)) hide)
    )
    (property "Value" "VBAT" (id 1) (at 194.31 53.975 0))
    (property "Footprint" "" (id 2) (at 194.31 58.42 0)
      (effects (font (size 1.27 1.27)) hide)
    )
    (property "Datasheet" "" (id 3) (at 194.31 58.42 0)
      (effects (font (size 1.27 1.27)) hide)
    )
    (pin "1" (uuid da98b357-4d07-47cb-8f45-28dd0f8cce24))
  )

  (symbol (lib_id "earring-v2:VBAT") (at 194.31 81.28 0) (unit 1)
    (in_bom yes) (on_board yes) (fields_autoplaced)
    (uuid f3bc4d45-73ed-47d1-9e19-dc5f829d2491)
    (property "Reference" "#PWR0157" (id 0) (at 194.31 85.09 0)
      (effects (font (size 1.27 1.27)) hide)
    )
    (property "Value" "VBAT" (id 1) (at 194.31 76.835 0))
    (property "Footprint" "" (id 2) (at 194.31 81.28 0)
      (effects (font (size 1.27 1.27)) hide)
    )
    (property "Datasheet" "" (id 3) (at 194.31 81.28 0)
      (effects (font (size 1.27 1.27)) hide)
    )
    (pin "1" (uuid ea9f8fce-b187-4eec-a8a1-2ba3a7a7ca0b))
  )

  (symbol (lib_id "earring-v2:VBAT") (at 194.31 104.14 0) (unit 1)
    (in_bom yes) (on_board yes) (fields_autoplaced)
    (uuid 5bdd6703-ba39-476b-8c9c-cad4cb20b5d9)
    (property "Reference" "#PWR0148" (id 0) (at 194.31 107.95 0)
      (effects (font (size 1.27 1.27)) hide)
    )
    (property "Value" "VBAT" (id 1) (at 194.31 99.695 0))
    (property "Footprint" "" (id 2) (at 194.31 104.14 0)
      (effects (font (size 1.27 1.27)) hide)
    )
    (property "Datasheet" "" (id 3) (at 194.31 104.14 0)
      (effects (font (size 1.27 1.27)) hide)
    )
    (pin "1" (uuid 21e2be39-acf2-4843-a738-a36af7ab420e))
  )

  (symbol (lib_id "earring-v2:VBAT") (at 194.31 127 0) (unit 1)
    (in_bom yes) (on_board yes) (fields_autoplaced)
    (uuid 280fea47-a33e-48f8-91ee-c67086f63c74)
    (property "Reference" "#PWR0149" (id 0) (at 194.31 130.81 0)
      (effects (font (size 1.27 1.27)) hide)
    )
    (property "Value" "VBAT" (id 1) (at 194.31 122.555 0))
    (property "Footprint" "" (id 2) (at 194.31 127 0)
      (effects (font (size 1.27 1.27)) hide)
    )
    (property "Datasheet" "" (id 3) (at 194.31 127 0)
      (effects (font (size 1.27 1.27)) hide)
    )
    (pin "1" (uuid 558a74b3-a25f-4139-9a0e-8b73c4495b64))
  )

  (symbol (lib_id "earring-v2:VBAT") (at 194.31 149.86 0) (unit 1)
    (in_bom yes) (on_board yes) (fields_autoplaced)
    (uuid 470b8936-5fcd-41b2-ae41-1fc9737728b2)
    (property "Reference" "#PWR0150" (id 0) (at 194.31 153.67 0)
      (effects (font (size 1.27 1.27)) hide)
    )
    (property "Value" "VBAT" (id 1) (at 194.31 145.415 0))
    (property "Footprint" "" (id 2) (at 194.31 149.86 0)
      (effects (font (size 1.27 1.27)) hide)
    )
    (property "Datasheet" "" (id 3) (at 194.31 149.86 0)
      (effects (font (size 1.27 1.27)) hide)
    )
    (pin "1" (uuid 8977d1fd-d108-472f-8763-3952db4ebc9d))
  )

  (symbol (lib_id "earring-v2:VBAT") (at 237.49 34.29 0) (unit 1)
    (in_bom yes) (on_board yes) (fields_autoplaced)
    (uuid 82211a16-00e6-4862-89b9-d516cc556586)
    (property "Reference" "#PWR0155" (id 0) (at 237.49 38.1 0)
      (effects (font (size 1.27 1.27)) hide)
    )
    (property "Value" "VBAT" (id 1) (at 237.49 29.845 0))
    (property "Footprint" "" (id 2) (at 237.49 34.29 0)
      (effects (font (size 1.27 1.27)) hide)
    )
    (property "Datasheet" "" (id 3) (at 237.49 34.29 0)
      (effects (font (size 1.27 1.27)) hide)
    )
    (pin "1" (uuid ea0e1931-0098-4486-a2ea-4cd98e58ec56))
  )

  (symbol (lib_id "earring-v2:VBAT") (at 237.49 57.15 0) (unit 1)
    (in_bom yes) (on_board yes) (fields_autoplaced)
    (uuid 2997d1a1-d07b-4901-a402-d3e8f6880015)
    (property "Reference" "#PWR0154" (id 0) (at 237.49 60.96 0)
      (effects (font (size 1.27 1.27)) hide)
    )
    (property "Value" "VBAT" (id 1) (at 237.49 52.705 0))
    (property "Footprint" "" (id 2) (at 237.49 57.15 0)
      (effects (font (size 1.27 1.27)) hide)
    )
    (property "Datasheet" "" (id 3) (at 237.49 57.15 0)
      (effects (font (size 1.27 1.27)) hide)
    )
    (pin "1" (uuid 15990f3b-00cc-4d8e-a794-1d51c76e9237))
  )

  (symbol (lib_id "earring-v2:VBAT") (at 237.49 80.01 0) (unit 1)
    (in_bom yes) (on_board yes) (fields_autoplaced)
    (uuid b5f9895f-f91c-4498-928d-938c5a8db412)
    (property "Reference" "#PWR0156" (id 0) (at 237.49 83.82 0)
      (effects (font (size 1.27 1.27)) hide)
    )
    (property "Value" "VBAT" (id 1) (at 237.49 75.565 0))
    (property "Footprint" "" (id 2) (at 237.49 80.01 0)
      (effects (font (size 1.27 1.27)) hide)
    )
    (property "Datasheet" "" (id 3) (at 237.49 80.01 0)
      (effects (font (size 1.27 1.27)) hide)
    )
    (pin "1" (uuid 31042996-128c-4d9b-8846-bb7b3c786f3b))
  )

  (symbol (lib_id "earring-v2:VBAT") (at 237.49 102.87 0) (unit 1)
    (in_bom yes) (on_board yes) (fields_autoplaced)
    (uuid e12a8387-789b-4171-8b3d-2273771c2f5b)
    (property "Reference" "#PWR0151" (id 0) (at 237.49 106.68 0)
      (effects (font (size 1.27 1.27)) hide)
    )
    (property "Value" "VBAT" (id 1) (at 237.49 98.425 0))
    (property "Footprint" "" (id 2) (at 237.49 102.87 0)
      (effects (font (size 1.27 1.27)) hide)
    )
    (property "Datasheet" "" (id 3) (at 237.49 102.87 0)
      (effects (font (size 1.27 1.27)) hide)
    )
    (pin "1" (uuid 08f33b92-fc01-42b2-8c2b-5feb35309120))
  )

  (symbol (lib_id "earring-v2:VBAT") (at 237.49 125.73 0) (unit 1)
    (in_bom yes) (on_board yes) (fields_autoplaced)
    (uuid f6714000-0a99-483e-b8b3-9427e5728648)
    (property "Reference" "#PWR0153" (id 0) (at 237.49 129.54 0)
      (effects (font (size 1.27 1.27)) hide)
    )
    (property "Value" "VBAT" (id 1) (at 237.49 121.285 0))
    (property "Footprint" "" (id 2) (at 237.49 125.73 0)
      (effects (font (size 1.27 1.27)) hide)
    )
    (property "Datasheet" "" (id 3) (at 237.49 125.73 0)
      (effects (font (size 1.27 1.27)) hide)
    )
    (pin "1" (uuid ed0cc856-5aa6-439f-80fb-34fdc095d456))
  )

  (symbol (lib_id "earring-v2:VBAT") (at 237.49 148.59 0) (unit 1)
    (in_bom yes) (on_board yes) (fields_autoplaced)
    (uuid ba075402-9511-41cb-9efd-cc13c28f33cd)
    (property "Reference" "#PWR0152" (id 0) (at 237.49 152.4 0)
      (effects (font (size 1.27 1.27)) hide)
    )
    (property "Value" "VBAT" (id 1) (at 237.49 144.145 0))
    (property "Footprint" "" (id 2) (at 237.49 148.59 0)
      (effects (font (size 1.27 1.27)) hide)
    )
    (property "Datasheet" "" (id 3) (at 237.49 148.59 0)
      (effects (font (size 1.27 1.27)) hide)
    )
    (pin "1" (uuid 04cdb175-c642-41a3-b23e-0368658ccd68))
  )

  (symbol (lib_id "Device:LED_RGBA") (at 55.88 63.5 0) (mirror y) (unit 1)
    (in_bom yes) (on_board yes) (fields_autoplaced)
    (uuid daaedb18-11a2-47d5-960f-d20ec017572c)
    (property "Reference" "D1" (id 0) (at 55.88 50.8 0))
    (property "Value" "LTST-C19HE1WT" (id 1) (at 55.88 53.34 0))
    (property "Footprint" "earring-v2:LED_LiteOn_LTST-C19HE1WT_3DMODEL" (id 2) (at 55.88 64.77 0)
      (effects (font (size 1.27 1.27)) hide)
    )
    (property "Datasheet" "~" (id 3) (at 55.88 64.77 0)
      (effects (font (size 1.27 1.27)) hide)
    )
    (pin "1" (uuid 64f0c1bb-e969-4562-b319-366279500153))
    (pin "2" (uuid 0d50fefd-e301-4bd2-85eb-7ab737b9f263))
    (pin "3" (uuid 3612b242-cc84-43a5-9fd1-0a0c92d91b6f))
    (pin "4" (uuid ab17fa64-ce36-4f8f-b578-37f3290f6f4f))
  )

  (symbol (lib_id "Device:LED_RGBA") (at 55.88 86.36 0) (mirror y) (unit 1)
    (in_bom yes) (on_board yes) (fields_autoplaced)
    (uuid 14b3fb88-1193-4917-b297-a763fcc1b9a9)
    (property "Reference" "D2" (id 0) (at 55.88 73.66 0))
    (property "Value" "LTST-C19HE1WT" (id 1) (at 55.88 76.2 0))
    (property "Footprint" "earring-v2:LED_LiteOn_LTST-C19HE1WT_3DMODEL" (id 2) (at 55.88 87.63 0)
      (effects (font (size 1.27 1.27)) hide)
    )
    (property "Datasheet" "~" (id 3) (at 55.88 87.63 0)
      (effects (font (size 1.27 1.27)) hide)
    )
    (pin "1" (uuid 824a267e-28a9-4751-966e-d96cbc0ae235))
    (pin "2" (uuid 9406f89c-5db1-46c6-ab5b-d2da50931051))
    (pin "3" (uuid 441320bd-a719-4f55-9d88-ef3b9e8318eb))
    (pin "4" (uuid 7de80fd9-40a3-4351-aa99-40b08285e8e5))
  )

  (symbol (lib_id "Device:LED_RGBA") (at 55.88 109.22 0) (mirror y) (unit 1)
    (in_bom yes) (on_board yes) (fields_autoplaced)
    (uuid 116df34c-45fc-46ba-bf96-97b0967e041a)
    (property "Reference" "D3" (id 0) (at 55.88 96.52 0))
    (property "Value" "LTST-C19HE1WT" (id 1) (at 55.88 99.06 0))
    (property "Footprint" "earring-v2:LED_LiteOn_LTST-C19HE1WT_3DMODEL" (id 2) (at 55.88 110.49 0)
      (effects (font (size 1.27 1.27)) hide)
    )
    (property "Datasheet" "~" (id 3) (at 55.88 110.49 0)
      (effects (font (size 1.27 1.27)) hide)
    )
    (pin "1" (uuid 8ac423cb-592b-43cd-8551-d3f5c23b2205))
    (pin "2" (uuid 25045247-2d01-4380-852d-3843115c98bf))
    (pin "3" (uuid 58fba5ca-a466-45d2-b548-68a3389a5774))
    (pin "4" (uuid 3c0dad6c-0f8b-42a2-917e-e05b6fb69f4e))
  )

  (symbol (lib_id "Device:LED_RGBA") (at 55.88 132.08 0) (mirror y) (unit 1)
    (in_bom yes) (on_board yes) (fields_autoplaced)
    (uuid 79ee8033-1524-4998-b652-9df51296788d)
    (property "Reference" "D4" (id 0) (at 55.88 119.38 0))
    (property "Value" "LTST-C19HE1WT" (id 1) (at 55.88 121.92 0))
    (property "Footprint" "earring-v2:LED_LiteOn_LTST-C19HE1WT_3DMODEL" (id 2) (at 55.88 133.35 0)
      (effects (font (size 1.27 1.27)) hide)
    )
    (property "Datasheet" "~" (id 3) (at 55.88 133.35 0)
      (effects (font (size 1.27 1.27)) hide)
    )
    (pin "1" (uuid b8be0a8d-6c97-47b0-b1d4-573675c1b148))
    (pin "2" (uuid 77266e24-3eb9-4beb-b8dd-9e2a2a3ddfb9))
    (pin "3" (uuid 7a68998a-7ccf-4c88-9185-c414de8dc51f))
    (pin "4" (uuid 7931de92-9002-479d-85a1-5fe07ca9e2ea))
  )

  (symbol (lib_id "Device:LED_RGBA") (at 55.88 154.94 0) (mirror y) (unit 1)
    (in_bom yes) (on_board yes) (fields_autoplaced)
    (uuid 3fd4ca9f-a71f-4715-a0f4-ba6011091979)
    (property "Reference" "D5" (id 0) (at 55.88 142.24 0))
    (property "Value" "LTST-C19HE1WT" (id 1) (at 55.88 144.78 0))
    (property "Footprint" "earring-v2:LED_LiteOn_LTST-C19HE1WT_3DMODEL" (id 2) (at 55.88 156.21 0)
      (effects (font (size 1.27 1.27)) hide)
    )
    (property "Datasheet" "~" (id 3) (at 55.88 156.21 0)
      (effects (font (size 1.27 1.27)) hide)
    )
    (pin "1" (uuid 13422cbc-c69d-4ee0-8aa8-9d6e028f1daa))
    (pin "2" (uuid 6bc35676-0bea-4c6a-9a10-49600f394880))
    (pin "3" (uuid 6b8fbd83-02ca-4f07-adde-e38f49aa8b67))
    (pin "4" (uuid 54295b14-d7e5-4295-9a51-bff5cf4cec9d))
  )

  (symbol (lib_id "Device:LED_RGBA") (at 55.88 177.8 0) (mirror y) (unit 1)
    (in_bom yes) (on_board yes) (fields_autoplaced)
    (uuid a16aa800-0d5c-4b4e-af79-cfe15c91f313)
    (property "Reference" "D6" (id 0) (at 55.88 165.1 0))
    (property "Value" "LTST-C19HE1WT" (id 1) (at 55.88 167.64 0))
    (property "Footprint" "earring-v2:LED_LiteOn_LTST-C19HE1WT_3DMODEL" (id 2) (at 55.88 179.07 0)
      (effects (font (size 1.27 1.27)) hide)
    )
    (property "Datasheet" "~" (id 3) (at 55.88 179.07 0)
      (effects (font (size 1.27 1.27)) hide)
    )
    (pin "1" (uuid 6dc92aa5-884d-4707-bc6d-5f0b0e4f5d7d))
    (pin "2" (uuid 8d589d42-01ee-4bd9-8501-cc99e71083a5))
    (pin "3" (uuid e0f51c26-be42-4c9a-bffb-a4944c11198b))
    (pin "4" (uuid f513257c-220b-4c9b-8619-fd83d9fa9b82))
  )

  (symbol (lib_id "Device:LED_RGBA") (at 117.475 60.96 0) (mirror y) (unit 1)
    (in_bom yes) (on_board yes) (fields_autoplaced)
    (uuid dd37dd74-ca58-4327-94ef-476f90128c32)
    (property "Reference" "D7" (id 0) (at 117.475 48.26 0))
    (property "Value" "LTST-C19HE1WT" (id 1) (at 117.475 50.8 0))
    (property "Footprint" "earring-v2:LED_LiteOn_LTST-C19HE1WT_3DMODEL" (id 2) (at 117.475 62.23 0)
      (effects (font (size 1.27 1.27)) hide)
    )
    (property "Datasheet" "~" (id 3) (at 117.475 62.23 0)
      (effects (font (size 1.27 1.27)) hide)
    )
    (pin "1" (uuid d8917d80-70e7-48ba-8c07-6ee75df4873a))
    (pin "2" (uuid a155df67-3c2b-4a1d-a77e-942a3e135e9d))
    (pin "3" (uuid d93a4756-13db-4fa9-8618-9dc6eda24239))
    (pin "4" (uuid 1c63f4b5-0644-47db-9afc-3e3e2e64780a))
  )

  (symbol (lib_id "Device:LED_RGBA") (at 117.475 83.82 0) (mirror y) (unit 1)
    (in_bom yes) (on_board yes) (fields_autoplaced)
    (uuid 598a9361-1f14-4442-ae62-24836d218a84)
    (property "Reference" "D8" (id 0) (at 117.475 71.12 0))
    (property "Value" "LTST-C19HE1WT" (id 1) (at 117.475 73.66 0))
    (property "Footprint" "earring-v2:LED_LiteOn_LTST-C19HE1WT_3DMODEL" (id 2) (at 117.475 85.09 0)
      (effects (font (size 1.27 1.27)) hide)
    )
    (property "Datasheet" "~" (id 3) (at 117.475 85.09 0)
      (effects (font (size 1.27 1.27)) hide)
    )
    (pin "1" (uuid bfc460db-198e-42ca-9c39-a39e12001c12))
    (pin "2" (uuid b4f201b7-ee9c-409f-8d39-e336509c9a49))
    (pin "3" (uuid 3d75821c-5585-47fd-9667-bab7cc4a1749))
    (pin "4" (uuid 39d4b881-f19b-4a02-b97e-8c1e3accc33f))
  )

  (symbol (lib_id "Device:LED_RGBA") (at 117.475 106.68 0) (mirror y) (unit 1)
    (in_bom yes) (on_board yes) (fields_autoplaced)
    (uuid bcead187-c370-4c34-b908-1c6a02d48d52)
    (property "Reference" "D9" (id 0) (at 117.475 93.98 0))
    (property "Value" "LTST-C19HE1WT" (id 1) (at 117.475 96.52 0))
    (property "Footprint" "earring-v2:LED_LiteOn_LTST-C19HE1WT_3DMODEL" (id 2) (at 117.475 107.95 0)
      (effects (font (size 1.27 1.27)) hide)
    )
    (property "Datasheet" "~" (id 3) (at 117.475 107.95 0)
      (effects (font (size 1.27 1.27)) hide)
    )
    (pin "1" (uuid 4a76499a-0b57-4e52-9a86-7bed7b7bc0ca))
    (pin "2" (uuid fc677183-01c1-4642-b3e3-cdcf20fc2fab))
    (pin "3" (uuid 3e0b25c0-c0f9-440e-a4c6-49642de4cc04))
    (pin "4" (uuid cd97fc6d-aff8-4d91-8255-a2da9aef4680))
  )

  (symbol (lib_id "Device:LED_RGBA") (at 117.475 129.54 0) (mirror y) (unit 1)
    (in_bom yes) (on_board yes) (fields_autoplaced)
    (uuid dc27a46f-3973-4a76-bb8a-9a4aafa654ff)
    (property "Reference" "D10" (id 0) (at 117.475 116.84 0))
    (property "Value" "LTST-C19HE1WT" (id 1) (at 117.475 119.38 0))
    (property "Footprint" "earring-v2:LED_LiteOn_LTST-C19HE1WT_3DMODEL" (id 2) (at 117.475 130.81 0)
      (effects (font (size 1.27 1.27)) hide)
    )
    (property "Datasheet" "~" (id 3) (at 117.475 130.81 0)
      (effects (font (size 1.27 1.27)) hide)
    )
    (pin "1" (uuid 63c1661a-001a-455f-ba82-171ae0af4165))
    (pin "2" (uuid 5ba272b9-4fd9-446e-82ff-8afc1937846b))
    (pin "3" (uuid 2f9a1507-584c-42a4-9696-ae6db61c9061))
    (pin "4" (uuid 336e261b-edf3-4209-ad8b-22df11be10ca))
  )

  (symbol (lib_id "Device:LED_RGBA") (at 117.475 152.4 0) (mirror y) (unit 1)
    (in_bom yes) (on_board yes) (fields_autoplaced)
    (uuid d40665c7-5f5a-4917-b204-8104e135b539)
    (property "Reference" "D11" (id 0) (at 117.475 139.7 0))
    (property "Value" "LTST-C19HE1WT" (id 1) (at 117.475 142.24 0))
    (property "Footprint" "earring-v2:LED_LiteOn_LTST-C19HE1WT_3DMODEL" (id 2) (at 117.475 153.67 0)
      (effects (font (size 1.27 1.27)) hide)
    )
    (property "Datasheet" "~" (id 3) (at 117.475 153.67 0)
      (effects (font (size 1.27 1.27)) hide)
    )
    (pin "1" (uuid 86304352-3ce7-46fb-8127-4c5f0840854c))
    (pin "2" (uuid 1e7e4b31-32a7-4230-8c68-3584e5277d41))
    (pin "3" (uuid af80586f-8654-4c34-b302-efa23c7a2d7f))
    (pin "4" (uuid b413e614-5d3e-4595-a8f4-2378a7a6f34d))
  )

  (symbol (lib_id "Device:LED_RGBA") (at 117.475 175.26 0) (mirror y) (unit 1)
    (in_bom yes) (on_board yes) (fields_autoplaced)
    (uuid a782daeb-d142-40d4-83b3-2707b5f770e4)
    (property "Reference" "D12" (id 0) (at 117.475 162.56 0))
    (property "Value" "LTST-C19HE1WT" (id 1) (at 117.475 165.1 0))
    (property "Footprint" "earring-v2:LED_LiteOn_LTST-C19HE1WT_3DMODEL" (id 2) (at 117.475 176.53 0)
      (effects (font (size 1.27 1.27)) hide)
    )
    (property "Datasheet" "~" (id 3) (at 117.475 176.53 0)
      (effects (font (size 1.27 1.27)) hide)
    )
    (pin "1" (uuid 2c0c0e36-af88-4ab2-b0f1-0ec75704da9e))
    (pin "2" (uuid e262f965-4f36-4f6f-8036-bfd02d0a404c))
    (pin "3" (uuid bc23ece2-9055-4d5b-a034-d2437e93bf77))
    (pin "4" (uuid 4050ae61-73f3-441d-9cc4-82dafd41e7a0))
  )

  (symbol (lib_id "Device:LED_RGBA") (at 199.39 35.56 0) (mirror y) (unit 1)
    (in_bom yes) (on_board yes) (fields_autoplaced)
    (uuid 558742df-10b9-4733-a90e-a832b153cf2a)
    (property "Reference" "D13" (id 0) (at 199.39 22.86 0))
    (property "Value" "LTST-C19HE1WT" (id 1) (at 199.39 25.4 0))
    (property "Footprint" "earring-v2:LED_LiteOn_LTST-C19HE1WT_3DMODEL" (id 2) (at 199.39 36.83 0)
      (effects (font (size 1.27 1.27)) hide)
    )
    (property "Datasheet" "~" (id 3) (at 199.39 36.83 0)
      (effects (font (size 1.27 1.27)) hide)
    )
    (pin "1" (uuid ef5287cb-b391-461a-be6d-7d5a0e2f6c66))
    (pin "2" (uuid 6e84f0f9-c570-4ba1-9760-5923bc39a54a))
    (pin "3" (uuid 19399aa9-586a-40eb-86a8-d4796795869f))
    (pin "4" (uuid 7fd17ff0-5e7f-46ce-9b9d-aeb4875362b7))
  )

  (symbol (lib_id "Device:LED_RGBA") (at 199.39 58.42 0) (mirror y) (unit 1)
    (in_bom yes) (on_board yes) (fields_autoplaced)
    (uuid e577bc8e-9b91-4f32-bb32-b70ec170a03e)
    (property "Reference" "D14" (id 0) (at 199.39 45.72 0))
    (property "Value" "LTST-C19HE1WT" (id 1) (at 199.39 48.26 0))
    (property "Footprint" "earring-v2:LED_LiteOn_LTST-C19HE1WT_3DMODEL" (id 2) (at 199.39 59.69 0)
      (effects (font (size 1.27 1.27)) hide)
    )
    (property "Datasheet" "~" (id 3) (at 199.39 59.69 0)
      (effects (font (size 1.27 1.27)) hide)
    )
    (pin "1" (uuid 3ab33e8a-5ce2-47a1-9c33-b0a856953641))
    (pin "2" (uuid b7bcf3a0-7217-4f6b-8631-01e4866c1531))
    (pin "3" (uuid b40bb842-4ec4-4131-bd83-70b929a78a80))
    (pin "4" (uuid 97e15e21-cb5e-4cc7-8a3a-1e8a6002b146))
  )

  (symbol (lib_id "Device:LED_RGBA") (at 199.39 81.28 0) (mirror y) (unit 1)
    (in_bom yes) (on_board yes) (fields_autoplaced)
    (uuid 2b306c04-9bf3-488a-bbd4-1109f25106dc)
    (property "Reference" "D15" (id 0) (at 199.39 68.58 0))
    (property "Value" "LTST-C19HE1WT" (id 1) (at 199.39 71.12 0))
    (property "Footprint" "earring-v2:LED_LiteOn_LTST-C19HE1WT_3DMODEL" (id 2) (at 199.39 82.55 0)
      (effects (font (size 1.27 1.27)) hide)
    )
    (property "Datasheet" "~" (id 3) (at 199.39 82.55 0)
      (effects (font (size 1.27 1.27)) hide)
    )
    (pin "1" (uuid 1bf766ce-3846-4a01-89ec-8d47b0bf2f65))
    (pin "2" (uuid bc34ae3f-435d-40ca-a2b5-3074deb778d8))
    (pin "3" (uuid d4d84438-a820-4a10-850d-d11839b1678c))
    (pin "4" (uuid 820912d9-376b-4fa6-a4c5-f9a276c0d5f3))
  )

  (symbol (lib_id "Device:LED_RGBA") (at 199.39 104.14 0) (mirror y) (unit 1)
    (in_bom yes) (on_board yes) (fields_autoplaced)
    (uuid 2f9b3560-4d77-42fe-bfca-cb3153b52dc4)
    (property "Reference" "D16" (id 0) (at 199.39 91.44 0))
    (property "Value" "LTST-C19HE1WT" (id 1) (at 199.39 93.98 0))
    (property "Footprint" "earring-v2:LED_LiteOn_LTST-C19HE1WT_3DMODEL" (id 2) (at 199.39 105.41 0)
      (effects (font (size 1.27 1.27)) hide)
    )
    (property "Datasheet" "~" (id 3) (at 199.39 105.41 0)
      (effects (font (size 1.27 1.27)) hide)
    )
    (pin "1" (uuid 71d95c14-79b2-42cf-aece-744733be7512))
    (pin "2" (uuid 7f9f1730-01fd-4b2c-8ae1-b55b85e42455))
    (pin "3" (uuid d116e09c-6160-452f-9839-a3309c1b82a8))
    (pin "4" (uuid 4d467b54-bfb4-4c46-80c3-bf2672353ae7))
  )

  (symbol (lib_id "Device:LED_RGBA") (at 199.39 127 0) (mirror y) (unit 1)
    (in_bom yes) (on_board yes) (fields_autoplaced)
    (uuid ef23ff1b-2e47-4a31-b8e9-fc99e24dd6b6)
    (property "Reference" "D17" (id 0) (at 199.39 114.3 0))
    (property "Value" "LTST-C19HE1WT" (id 1) (at 199.39 116.84 0))
    (property "Footprint" "earring-v2:LED_LiteOn_LTST-C19HE1WT_3DMODEL" (id 2) (at 199.39 128.27 0)
      (effects (font (size 1.27 1.27)) hide)
    )
    (property "Datasheet" "~" (id 3) (at 199.39 128.27 0)
      (effects (font (size 1.27 1.27)) hide)
    )
    (pin "1" (uuid d1610d80-5183-4d1b-8e99-d47052a1688f))
    (pin "2" (uuid 5dc120bb-c8fc-4755-a661-bc1d97244dff))
    (pin "3" (uuid f9cd070d-e1a0-4be5-b56a-1f0335c624e8))
    (pin "4" (uuid 624a90a8-db35-4cb0-8f9c-a4bf3c5ccd08))
  )

  (symbol (lib_id "Device:LED_RGBA") (at 199.39 149.86 0) (mirror y) (unit 1)
    (in_bom yes) (on_board yes) (fields_autoplaced)
    (uuid 5eaf975c-ad2e-4a69-93a6-e50e4058665c)
    (property "Reference" "D18" (id 0) (at 199.39 137.16 0))
    (property "Value" "LTST-C19HE1WT" (id 1) (at 199.39 139.7 0))
    (property "Footprint" "earring-v2:LED_LiteOn_LTST-C19HE1WT_3DMODEL" (id 2) (at 199.39 151.13 0)
      (effects (font (size 1.27 1.27)) hide)
    )
    (property "Datasheet" "~" (id 3) (at 199.39 151.13 0)
      (effects (font (size 1.27 1.27)) hide)
    )
    (pin "1" (uuid 09eb3409-c93f-445e-9841-0f7664f47dcc))
    (pin "2" (uuid 8abea45f-283a-4a06-a2a3-79fc28a410ec))
    (pin "3" (uuid 964e0470-94ad-463d-8977-86a331d307ef))
    (pin "4" (uuid ec279470-d352-49ff-b8f2-2c805f9001a7))
  )

  (symbol (lib_id "Device:LED_RGBA") (at 242.57 34.29 0) (mirror y) (unit 1)
    (in_bom yes) (on_board yes) (fields_autoplaced)
    (uuid c4f1db72-496c-4f0f-ac1f-43efa930c777)
    (property "Reference" "D19" (id 0) (at 242.57 21.59 0))
    (property "Value" "LTST-C19HE1WT" (id 1) (at 242.57 24.13 0))
    (property "Footprint" "earring-v2:LED_LiteOn_LTST-C19HE1WT_3DMODEL" (id 2) (at 242.57 35.56 0)
      (effects (font (size 1.27 1.27)) hide)
    )
    (property "Datasheet" "~" (id 3) (at 242.57 35.56 0)
      (effects (font (size 1.27 1.27)) hide)
    )
    (pin "1" (uuid 7bf297b1-d433-490e-9f7a-d3eb46f1e66f))
    (pin "2" (uuid 0ca306dc-bcf9-4534-a520-e4c59924e247))
    (pin "3" (uuid 295e5d4e-3ec2-4c72-81c3-9597a47ad7bc))
    (pin "4" (uuid 047f539b-91cc-4896-9d67-687f5afca71b))
  )

  (symbol (lib_id "Device:LED_RGBA") (at 242.57 57.15 0) (mirror y) (unit 1)
    (in_bom yes) (on_board yes) (fields_autoplaced)
    (uuid 60f68dcc-eed9-4747-9968-2906b6fdb8c8)
    (property "Reference" "D20" (id 0) (at 242.57 44.45 0))
    (property "Value" "LTST-C19HE1WT" (id 1) (at 242.57 46.99 0))
    (property "Footprint" "earring-v2:LED_LiteOn_LTST-C19HE1WT_3DMODEL" (id 2) (at 242.57 58.42 0)
      (effects (font (size 1.27 1.27)) hide)
    )
    (property "Datasheet" "~" (id 3) (at 242.57 58.42 0)
      (effects (font (size 1.27 1.27)) hide)
    )
    (pin "1" (uuid 50d9d2c0-d2c7-47f7-94b7-6f4b424c3aa9))
    (pin "2" (uuid 136bafdd-d5e4-4155-acb9-b6ef3858860b))
    (pin "3" (uuid eaf898ef-9b3b-46b2-bb5b-b31d808a7170))
    (pin "4" (uuid ccf49298-0698-4833-a5e4-e6a31fc54768))
  )

  (symbol (lib_id "Device:LED_RGBA") (at 242.57 80.01 0) (mirror y) (unit 1)
    (in_bom yes) (on_board yes) (fields_autoplaced)
    (uuid 2b4a719c-41eb-4d50-9578-4df1b3b6826e)
    (property "Reference" "D21" (id 0) (at 242.57 67.31 0))
    (property "Value" "LTST-C19HE1WT" (id 1) (at 242.57 69.85 0))
    (property "Footprint" "earring-v2:LED_LiteOn_LTST-C19HE1WT_3DMODEL" (id 2) (at 242.57 81.28 0)
      (effects (font (size 1.27 1.27)) hide)
    )
    (property "Datasheet" "~" (id 3) (at 242.57 81.28 0)
      (effects (font (size 1.27 1.27)) hide)
    )
    (pin "1" (uuid 1df44563-80a7-45a4-9198-a06d8d91f890))
    (pin "2" (uuid aa29c5f7-7d9e-4667-bd36-760378ffc406))
    (pin "3" (uuid 63cde087-3112-40d4-a5fc-700533cd975e))
    (pin "4" (uuid 4c933308-7e92-4608-8a29-4c5f15fca027))
  )

  (symbol (lib_id "Device:LED_RGBA") (at 242.57 102.87 0) (mirror y) (unit 1)
    (in_bom yes) (on_board yes) (fields_autoplaced)
    (uuid 77bff2db-9e61-4efe-98f6-0c1a4f50ee0b)
    (property "Reference" "D22" (id 0) (at 242.57 90.17 0))
    (property "Value" "LTST-C19HE1WT" (id 1) (at 242.57 92.71 0))
    (property "Footprint" "earring-v2:LED_LiteOn_LTST-C19HE1WT_3DMODEL" (id 2) (at 242.57 104.14 0)
      (effects (font (size 1.27 1.27)) hide)
    )
    (property "Datasheet" "~" (id 3) (at 242.57 104.14 0)
      (effects (font (size 1.27 1.27)) hide)
    )
    (pin "1" (uuid 629d1c49-5595-441c-a5f4-3771df6b0a7f))
    (pin "2" (uuid b569b33a-c541-4324-b275-1601b22ff4d0))
    (pin "3" (uuid 06dd380e-fe47-4cfb-b6b6-2a2fa61079b6))
    (pin "4" (uuid a2f8219e-a6d4-4bab-a33b-fc0a2c3828e8))
  )

  (symbol (lib_id "Device:LED_RGBA") (at 242.57 125.73 0) (mirror y) (unit 1)
    (in_bom yes) (on_board yes) (fields_autoplaced)
    (uuid 67ed63a6-aa9b-4dba-81bd-afaab5a6c173)
    (property "Reference" "D23" (id 0) (at 242.57 113.03 0))
    (property "Value" "LTST-C19HE1WT" (id 1) (at 242.57 115.57 0))
    (property "Footprint" "earring-v2:LED_LiteOn_LTST-C19HE1WT_3DMODEL" (id 2) (at 242.57 127 0)
      (effects (font (size 1.27 1.27)) hide)
    )
    (property "Datasheet" "~" (id 3) (at 242.57 127 0)
      (effects (font (size 1.27 1.27)) hide)
    )
    (pin "1" (uuid 564a4a67-1ea5-4830-817b-170bfa275789))
    (pin "2" (uuid 4ba0fff2-75d5-43c5-9855-42480a7a2897))
    (pin "3" (uuid ebe37ced-c518-4686-9dd4-facebfbc77ac))
    (pin "4" (uuid 63ad8c80-ab77-47ec-84cc-07b132820634))
  )

  (symbol (lib_id "Device:LED_RGBA") (at 242.57 148.59 0) (mirror y) (unit 1)
    (in_bom yes) (on_board yes) (fields_autoplaced)
    (uuid 7d99bff2-d397-47dc-abd7-2b269435589e)
    (property "Reference" "D24" (id 0) (at 242.57 135.89 0))
    (property "Value" "LTST-C19HE1WT" (id 1) (at 242.57 138.43 0))
    (property "Footprint" "earring-v2:LED_LiteOn_LTST-C19HE1WT_3DMODEL" (id 2) (at 242.57 149.86 0)
      (effects (font (size 1.27 1.27)) hide)
    )
    (property "Datasheet" "~" (id 3) (at 242.57 149.86 0)
      (effects (font (size 1.27 1.27)) hide)
    )
    (pin "1" (uuid 01271712-7d6d-4e86-86fb-52c5bd794528))
    (pin "2" (uuid 13f29d72-e33a-49dc-bd9d-610f033f7364))
    (pin "3" (uuid 6c80ff6a-1620-4760-b34f-61b2db0b7536))
    (pin "4" (uuid 2ab77348-a8b1-45dc-b2a9-003fd7476dc5))
  )
)
